<?xml version="1.0" encoding="utf-8"?>
<!DOCTYPE eagle SYSTEM "eagle.dtd">
<eagle version="9.3.0">
<drawing>
<settings>
<setting alwaysvectorfont="no"/>
<setting verticaltext="up"/>
</settings>
<grid distance="5" unitdist="mil" unit="mil" style="lines" multiple="1" display="no" altdistance="5" altunitdist="mil" altunit="mil"/>
<layers>
<layer number="1" name="Top" color="4" fill="1" visible="yes" active="yes"/>
<layer number="2" name="Route2" color="16" fill="1" visible="no" active="no"/>
<layer number="3" name="Route3" color="17" fill="1" visible="no" active="no"/>
<layer number="4" name="Route4" color="18" fill="1" visible="no" active="no"/>
<layer number="5" name="Route5" color="19" fill="1" visible="no" active="no"/>
<layer number="6" name="Route6" color="25" fill="1" visible="no" active="no"/>
<layer number="7" name="Route7" color="26" fill="1" visible="no" active="no"/>
<layer number="8" name="Route8" color="27" fill="1" visible="no" active="no"/>
<layer number="9" name="Route9" color="28" fill="1" visible="no" active="no"/>
<layer number="10" name="Route10" color="29" fill="1" visible="no" active="no"/>
<layer number="11" name="Route11" color="30" fill="1" visible="no" active="no"/>
<layer number="12" name="Route12" color="20" fill="1" visible="no" active="no"/>
<layer number="13" name="Route13" color="21" fill="1" visible="no" active="no"/>
<layer number="14" name="Route14" color="22" fill="1" visible="no" active="no"/>
<layer number="15" name="Route15" color="23" fill="1" visible="no" active="no"/>
<layer number="16" name="Bottom" color="1" fill="1" visible="yes" active="yes"/>
<layer number="17" name="Pads" color="2" fill="1" visible="yes" active="yes"/>
<layer number="18" name="Vias" color="2" fill="1" visible="yes" active="yes"/>
<layer number="19" name="Unrouted" color="6" fill="1" visible="yes" active="yes"/>
<layer number="20" name="Dimension" color="24" fill="1" visible="yes" active="yes"/>
<layer number="21" name="tPlace" color="7" fill="1" visible="yes" active="yes"/>
<layer number="22" name="bPlace" color="7" fill="1" visible="yes" active="yes"/>
<layer number="23" name="tOrigins" color="15" fill="1" visible="yes" active="yes"/>
<layer number="24" name="bOrigins" color="15" fill="1" visible="yes" active="yes"/>
<layer number="25" name="tNames" color="7" fill="1" visible="yes" active="yes"/>
<layer number="26" name="bNames" color="7" fill="1" visible="yes" active="yes"/>
<layer number="27" name="tValues" color="7" fill="1" visible="yes" active="yes"/>
<layer number="28" name="bValues" color="7" fill="1" visible="yes" active="yes"/>
<layer number="29" name="tStop" color="7" fill="3" visible="no" active="yes"/>
<layer number="30" name="bStop" color="7" fill="6" visible="no" active="yes"/>
<layer number="31" name="tCream" color="7" fill="4" visible="no" active="yes"/>
<layer number="32" name="bCream" color="7" fill="5" visible="no" active="yes"/>
<layer number="33" name="tFinish" color="6" fill="3" visible="no" active="yes"/>
<layer number="34" name="bFinish" color="6" fill="6" visible="no" active="yes"/>
<layer number="35" name="tGlue" color="7" fill="4" visible="no" active="yes"/>
<layer number="36" name="bGlue" color="7" fill="5" visible="no" active="yes"/>
<layer number="37" name="tTest" color="7" fill="1" visible="no" active="yes"/>
<layer number="38" name="bTest" color="7" fill="1" visible="no" active="yes"/>
<layer number="39" name="tKeepout" color="4" fill="11" visible="yes" active="yes"/>
<layer number="40" name="bKeepout" color="1" fill="11" visible="yes" active="yes"/>
<layer number="41" name="tRestrict" color="4" fill="10" visible="yes" active="yes"/>
<layer number="42" name="bRestrict" color="1" fill="10" visible="yes" active="yes"/>
<layer number="43" name="vRestrict" color="2" fill="10" visible="yes" active="yes"/>
<layer number="44" name="Drills" color="7" fill="1" visible="no" active="yes"/>
<layer number="45" name="Holes" color="7" fill="1" visible="no" active="yes"/>
<layer number="46" name="Milling" color="3" fill="1" visible="no" active="yes"/>
<layer number="47" name="Measures" color="7" fill="1" visible="no" active="yes"/>
<layer number="48" name="Document" color="7" fill="1" visible="yes" active="yes"/>
<layer number="49" name="Reference" color="7" fill="1" visible="yes" active="yes"/>
<layer number="51" name="tDocu" color="7" fill="1" visible="yes" active="yes"/>
<layer number="52" name="bDocu" color="7" fill="1" visible="yes" active="yes"/>
<layer number="88" name="SimResults" color="9" fill="1" visible="no" active="no"/>
<layer number="89" name="SimProbes" color="9" fill="1" visible="no" active="no"/>
<layer number="90" name="Modules" color="5" fill="1" visible="no" active="no"/>
<layer number="91" name="Nets" color="2" fill="1" visible="no" active="no"/>
<layer number="92" name="Busses" color="1" fill="1" visible="no" active="no"/>
<layer number="93" name="Pins" color="2" fill="1" visible="no" active="no"/>
<layer number="94" name="Symbols" color="4" fill="1" visible="no" active="no"/>
<layer number="95" name="Names" color="7" fill="1" visible="no" active="no"/>
<layer number="96" name="Values" color="7" fill="1" visible="no" active="no"/>
<layer number="97" name="Info" color="7" fill="1" visible="no" active="no"/>
<layer number="98" name="Guide" color="6" fill="1" visible="no" active="no"/>
<layer number="99" name="SpiceOrder" color="7" fill="1" visible="no" active="no"/>
</layers>
<board>
<fusionsync huburn="a.cGVyc29uYWw6dWUyZDcwNjcx" projecturn="a.cGVyc29uYWw6dWUyZDcwNjcxIzIwMTgxMjEzMTY1NDA4OTI2" f3durn="urn:adsk.wipprod:dm.lineage:n4kM0fgTS5C7iUuhWtxpiw" pcbguid="374fc2bb-7593-40fd-8a36-0c2d4223f610" lastpulledtime="" lastsyncedchangeguid="ed1067af-f166-a7d9-ac10-787d40ce38b5"/>
<plain>
<wire x1="0.635" y1="2.667" x2="0.635" y2="24.892" width="0.0254" layer="20"/>
<wire x1="0.635" y1="24.892" x2="2.667" y2="26.924" width="0.0254" layer="20"/>
<wire x1="2.667" y1="26.924" x2="24.892" y2="26.924" width="0.0254" layer="20"/>
<wire x1="24.892" y1="26.924" x2="26.924" y2="24.892" width="0.0254" layer="20"/>
<wire x1="26.924" y1="24.892" x2="26.924" y2="2.667" width="0.0254" layer="20"/>
<wire x1="26.924" y1="2.667" x2="24.892" y2="0.635" width="0.0254" layer="20"/>
<wire x1="24.892" y1="0.635" x2="2.667" y2="0.635" width="0.0254" layer="20"/>
<wire x1="2.667" y1="0.635" x2="0.635" y2="2.667" width="0.0254" layer="20"/>
<text x="15.875" y="22.098" size="1.778" layer="25" align="center-left">Unitec
2019</text>
<text x="3.048" y="3.048" size="0.8128" layer="25">Ation</text>
<circle x="2.31" y="2.278" radius="0.3048" width="0.254" layer="21"/>
<text x="24.638" y="3.048" size="1.778" layer="26" rot="MR0">In UNITEC we trust</text>
</plain>
<libraries>
<library name="rcl" urn="urn:adsk.eagle:library:334">
<description>&lt;b&gt;Resistors, Capacitors, Inductors&lt;/b&gt;&lt;p&gt;
Based on the previous libraries:
&lt;ul&gt;
&lt;li&gt;r.lbr
&lt;li&gt;cap.lbr 
&lt;li&gt;cap-fe.lbr
&lt;li&gt;captant.lbr
&lt;li&gt;polcap.lbr
&lt;li&gt;ipc-smd.lbr
&lt;/ul&gt;
All SMD packages are defined according to the IPC specifications and  CECC&lt;p&gt;
&lt;author&gt;Created by librarian@cadsoft.de&lt;/author&gt;&lt;p&gt;
&lt;p&gt;
for Electrolyt Capacitors see also :&lt;p&gt;
www.bccomponents.com &lt;p&gt;
www.panasonic.com&lt;p&gt;
www.kemet.com&lt;p&gt;
http://www.secc.co.jp/pdf/os_e/2004/e_os_all.pdf &lt;b&gt;(SANYO)&lt;/b&gt;
&lt;p&gt;
for trimmer refence see : &lt;u&gt;www.electrospec-inc.com/cross_references/trimpotcrossref.asp&lt;/u&gt;&lt;p&gt;

&lt;table border=0 cellspacing=0 cellpadding=0 width="100%" cellpaddding=0&gt;
&lt;tr valign="top"&gt;

&lt;! &lt;td width="10"&gt;&amp;nbsp;&lt;/td&gt;
&lt;td width="90%"&gt;

&lt;b&gt;&lt;font color="#0000FF" size="4"&gt;TRIM-POT CROSS REFERENCE&lt;/font&gt;&lt;/b&gt;
&lt;P&gt;
&lt;TABLE BORDER=0 CELLSPACING=1 CELLPADDING=2&gt;
  &lt;TR&gt;
    &lt;TD COLSPAN=8&gt;
      &lt;FONT SIZE=3 FACE=ARIAL&gt;&lt;B&gt;RECTANGULAR MULTI-TURN&lt;/B&gt;&lt;/FONT&gt;
    &lt;/TD&gt;
  &lt;/TR&gt;
  &lt;TR&gt;
    &lt;TD ALIGN=CENTER&gt;
      &lt;B&gt;
      &lt;FONT SIZE=3 FACE=ARIAL color="#FF0000"&gt;BOURNS&lt;/FONT&gt;
      &lt;/B&gt;
    &lt;/TD&gt;
    &lt;TD ALIGN=CENTER&gt;
      &lt;B&gt;
      &lt;FONT SIZE=3 FACE=ARIAL color="#FF0000"&gt;BI&amp;nbsp;TECH&lt;/FONT&gt;
      &lt;/B&gt;
    &lt;/TD&gt;
    &lt;TD ALIGN=CENTER&gt;
      &lt;B&gt;
      &lt;FONT SIZE=3 FACE=ARIAL color="#FF0000"&gt;DALE-VISHAY&lt;/FONT&gt;
      &lt;/B&gt;
    &lt;/TD&gt;
    &lt;TD ALIGN=CENTER&gt;
      &lt;B&gt;
      &lt;FONT SIZE=3 FACE=ARIAL color="#FF0000"&gt;PHILIPS/MEPCO&lt;/FONT&gt;
      &lt;/B&gt;
    &lt;/TD&gt;
    &lt;TD ALIGN=CENTER&gt;
      &lt;B&gt;
      &lt;FONT SIZE=3 FACE=ARIAL color="#FF0000"&gt;MURATA&lt;/FONT&gt;
      &lt;/B&gt;
    &lt;/TD&gt;
    &lt;TD ALIGN=CENTER&gt;
      &lt;B&gt;
      &lt;FONT SIZE=3 FACE=ARIAL color="#FF0000"&gt;PANASONIC&lt;/FONT&gt;
      &lt;/B&gt;
    &lt;/TD&gt;
    &lt;TD ALIGN=CENTER&gt;
      &lt;B&gt;
      &lt;FONT SIZE=3 FACE=ARIAL color="#FF0000"&gt;SPECTROL&lt;/FONT&gt;
      &lt;/B&gt;
    &lt;/TD&gt;
    &lt;TD ALIGN=CENTER&gt;
      &lt;B&gt;
      &lt;FONT SIZE=3 FACE=ARIAL color="#FF0000"&gt;MILSPEC&lt;/FONT&gt;
      &lt;/B&gt;
    &lt;/TD&gt;&lt;TD&gt;&amp;nbsp;&lt;/TD&gt;
  &lt;/TR&gt;
  &lt;TR&gt;
    &lt;TD BGCOLOR="#cccccc" ALIGN=CENTER&gt;&lt;FONT FACE=ARIAL SIZE=3 &gt;
      3005P&lt;BR&gt;
      3006P&lt;BR&gt;
      3006W&lt;BR&gt;
      3006Y&lt;BR&gt;
      3009P&lt;BR&gt;
      3009W&lt;BR&gt;
      3009Y&lt;BR&gt;
      3057J&lt;BR&gt;
      3057L&lt;BR&gt;
      3057P&lt;BR&gt;
      3057Y&lt;BR&gt;
      3059J&lt;BR&gt;
      3059L&lt;BR&gt;
      3059P&lt;BR&gt;
      3059Y&lt;BR&gt;&lt;/FONT&gt;
    &lt;/TD&gt;
    &lt;TD BGCOLOR="#cccccc" ALIGN=CENTER&gt;&lt;FONT FACE=ARIAL SIZE=3&gt;
      -&lt;BR&gt;
      89P&lt;BR&gt;
      89W&lt;BR&gt;
      89X&lt;BR&gt;
      89PH&lt;BR&gt;
      76P&lt;BR&gt;
      89XH&lt;BR&gt;
      78SLT&lt;BR&gt;
      78L&amp;nbsp;ALT&lt;BR&gt;
      56P&amp;nbsp;ALT&lt;BR&gt;
      78P&amp;nbsp;ALT&lt;BR&gt;
      T8S&lt;BR&gt;
      78L&lt;BR&gt;
      56P&lt;BR&gt;
      78P&lt;BR&gt;&lt;/FONT&gt;
    &lt;/TD&gt;
    &lt;TD BGCOLOR="#cccccc" ALIGN=CENTER&gt;&lt;FONT FACE=ARIAL SIZE=3&gt;
      -&lt;BR&gt;
      T18/784&lt;BR&gt;
      783&lt;BR&gt;
      781&lt;BR&gt;
      -&lt;BR&gt;
      -&lt;BR&gt;
      -&lt;BR&gt;
      2199&lt;BR&gt;
      1697/1897&lt;BR&gt;
      1680/1880&lt;BR&gt;
      2187&lt;BR&gt;
      -&lt;BR&gt;
      -&lt;BR&gt;
      -&lt;BR&gt;
      -&lt;BR&gt;&lt;/FONT&gt;
    &lt;/TD&gt;
    &lt;TD BGCOLOR="#cccccc" ALIGN=CENTER&gt;&lt;FONT FACE=ARIAL SIZE=3&gt;
      -&lt;BR&gt;
      8035EKP/CT20/RJ-20P&lt;BR&gt;
      -&lt;BR&gt;
      RJ-20X&lt;BR&gt;
      -&lt;BR&gt;
      -&lt;BR&gt;
      -&lt;BR&gt;
      1211L&lt;BR&gt;
      8012EKQ&amp;nbsp;ALT&lt;BR&gt;
      8012EKR&amp;nbsp;ALT&lt;BR&gt;
      1211P&lt;BR&gt;
      8012EKJ&lt;BR&gt;
      8012EKL&lt;BR&gt;
      8012EKQ&lt;BR&gt;
      8012EKR&lt;BR&gt;&lt;/FONT&gt;
    &lt;/TD&gt;
    &lt;TD BGCOLOR="#cccccc" ALIGN=CENTER&gt;&lt;FONT FACE=ARIAL SIZE=3&gt;
      -&lt;BR&gt;
      2101P&lt;BR&gt;
      2101W&lt;BR&gt;
      2101Y&lt;BR&gt;
      -&lt;BR&gt;
      -&lt;BR&gt;
      -&lt;BR&gt;
      -&lt;BR&gt;
      -&lt;BR&gt;
      -&lt;BR&gt;
      -&lt;BR&gt;
      -&lt;BR&gt;
      2102L&lt;BR&gt;
      2102S&lt;BR&gt;
      2102Y&lt;BR&gt;&lt;/FONT&gt;
    &lt;/TD&gt;
    &lt;TD BGCOLOR="#cccccc" ALIGN=CENTER&gt;&lt;FONT FACE=ARIAL SIZE=3&gt;
      -&lt;BR&gt;
      EVMCOG&lt;BR&gt;
      -&lt;BR&gt;
      -&lt;BR&gt;
      -&lt;BR&gt;
      -&lt;BR&gt;
      -&lt;BR&gt;
      -&lt;BR&gt;
      -&lt;BR&gt;
      -&lt;BR&gt;
      -&lt;BR&gt;
      -&lt;BR&gt;
      -&lt;BR&gt;
      -&lt;BR&gt;
      -&lt;BR&gt;&lt;/FONT&gt;
    &lt;/TD&gt;
    &lt;TD BGCOLOR="#cccccc" ALIGN=CENTER&gt;&lt;FONT FACE=ARIAL SIZE=3&gt;
      -&lt;BR&gt;
      43P&lt;BR&gt;
      43W&lt;BR&gt;
      43Y&lt;BR&gt;
      -&lt;BR&gt;
      -&lt;BR&gt;
      -&lt;BR&gt;
      -&lt;BR&gt;
      40L&lt;BR&gt;
      40P&lt;BR&gt;
      40Y&lt;BR&gt;
      70Y-T602&lt;BR&gt;
      70L&lt;BR&gt;
      70P&lt;BR&gt;
      70Y&lt;BR&gt;&lt;/FONT&gt;
    &lt;/TD&gt;
    &lt;TD BGCOLOR="#cccccc" ALIGN=CENTER&gt;&lt;FONT FACE=ARIAL SIZE=3&gt;
      -&lt;BR&gt;
      -&lt;BR&gt;
      -&lt;BR&gt;
      -&lt;BR&gt;
      -&lt;BR&gt;
      -&lt;BR&gt;
      -&lt;BR&gt;
      -&lt;BR&gt;
      RT/RTR12&lt;BR&gt;
      RT/RTR12&lt;BR&gt;
      RT/RTR12&lt;BR&gt;
      -&lt;BR&gt;
      RJ/RJR12&lt;BR&gt;
      RJ/RJR12&lt;BR&gt;
      RJ/RJR12&lt;BR&gt;&lt;/FONT&gt;
    &lt;/TD&gt;
  &lt;/TR&gt;
  &lt;TR&gt;
    &lt;TD COLSPAN=8&gt;&amp;nbsp;
    &lt;/TD&gt;
  &lt;/TR&gt;
  &lt;TR&gt;
    &lt;TD COLSPAN=8&gt;
      &lt;FONT SIZE=4 FACE=ARIAL&gt;&lt;B&gt;SQUARE MULTI-TURN&lt;/B&gt;&lt;/FONT&gt;
    &lt;/TD&gt;
  &lt;/TR&gt;
  &lt;TR&gt;
   &lt;TD ALIGN=CENTER&gt;
      &lt;FONT SIZE=3 FACE=ARIAL&gt;&lt;B&gt;BOURN&lt;/B&gt;&lt;/FONT&gt;
    &lt;/TD&gt;
    &lt;TD ALIGN=CENTER&gt;
      &lt;FONT SIZE=3 FACE=ARIAL&gt;&lt;B&gt;BI&amp;nbsp;TECH&lt;/B&gt;&lt;/FONT&gt;
    &lt;/TD&gt;
    &lt;TD ALIGN=CENTER&gt;
      &lt;FONT SIZE=3 FACE=ARIAL&gt;&lt;B&gt;DALE-VISHAY&lt;/B&gt;&lt;/FONT&gt;
    &lt;/TD&gt;
    &lt;TD ALIGN=CENTER&gt;
      &lt;FONT SIZE=3 FACE=ARIAL&gt;&lt;B&gt;PHILIPS/MEPCO&lt;/B&gt;&lt;/FONT&gt;
    &lt;/TD&gt;
    &lt;TD ALIGN=CENTER&gt;
      &lt;FONT SIZE=3 FACE=ARIAL&gt;&lt;B&gt;MURATA&lt;/B&gt;&lt;/FONT&gt;
    &lt;/TD&gt;
    &lt;TD ALIGN=CENTER&gt;
      &lt;FONT SIZE=3 FACE=ARIAL&gt;&lt;B&gt;PANASONIC&lt;/B&gt;&lt;/FONT&gt;
    &lt;/TD&gt;
    &lt;TD ALIGN=CENTER&gt;
      &lt;FONT SIZE=3 FACE=ARIAL&gt;&lt;B&gt;SPECTROL&lt;/B&gt;&lt;/FONT&gt;
    &lt;/TD&gt;
    &lt;TD ALIGN=CENTER&gt;
      &lt;FONT SIZE=3 FACE=ARIAL&gt;&lt;B&gt;MILSPEC&lt;/B&gt;&lt;/FONT&gt;
    &lt;/TD&gt;
  &lt;/TR&gt;
  &lt;TR&gt;
    &lt;TD BGCOLOR="#cccccc" ALIGN=CENTER&gt;&lt;FONT FACE=ARIAL SIZE=3&gt;
      3250L&lt;BR&gt;
      3250P&lt;BR&gt;
      3250W&lt;BR&gt;
      3250X&lt;BR&gt;
      3252P&lt;BR&gt;
      3252W&lt;BR&gt;
      3252X&lt;BR&gt;
      3260P&lt;BR&gt;
      3260W&lt;BR&gt;
      3260X&lt;BR&gt;
      3262P&lt;BR&gt;
      3262W&lt;BR&gt;
      3262X&lt;BR&gt;
      3266P&lt;BR&gt;
      3266W&lt;BR&gt;
      3266X&lt;BR&gt;
      3290H&lt;BR&gt;
      3290P&lt;BR&gt;
      3290W&lt;BR&gt;
      3292P&lt;BR&gt;
      3292W&lt;BR&gt;
      3292X&lt;BR&gt;
      3296P&lt;BR&gt;
      3296W&lt;BR&gt;
      3296X&lt;BR&gt;
      3296Y&lt;BR&gt;
      3296Z&lt;BR&gt;
      3299P&lt;BR&gt;
      3299W&lt;BR&gt;
      3299X&lt;BR&gt;
      3299Y&lt;BR&gt;
      3299Z&lt;BR&gt;&lt;/FONT&gt;
    &lt;/TD&gt;
    &lt;TD BGCOLOR="#cccccc" ALIGN=CENTER&gt;&lt;FONT FACE=ARIAL SIZE=3&gt;
      -&lt;BR&gt;
      66P&amp;nbsp;ALT&lt;BR&gt;
      66W&amp;nbsp;ALT&lt;BR&gt;
      66X&amp;nbsp;ALT&lt;BR&gt;
      66P&amp;nbsp;ALT&lt;BR&gt;
      66W&amp;nbsp;ALT&lt;BR&gt;
      66X&amp;nbsp;ALT&lt;BR&gt;
      -&lt;BR&gt;
      64W&amp;nbsp;ALT&lt;BR&gt;
      -&lt;BR&gt;
      64P&amp;nbsp;ALT&lt;BR&gt;
      64W&amp;nbsp;ALT&lt;BR&gt;
      64X&amp;nbsp;ALT&lt;BR&gt;
      64P&lt;BR&gt;
      64W&lt;BR&gt;
      64X&lt;BR&gt;
      66X&amp;nbsp;ALT&lt;BR&gt;
      66P&amp;nbsp;ALT&lt;BR&gt;
      66W&amp;nbsp;ALT&lt;BR&gt;
      66P&lt;BR&gt;
      66W&lt;BR&gt;
      66X&lt;BR&gt;
      67P&lt;BR&gt;
      67W&lt;BR&gt;
      67X&lt;BR&gt;
      67Y&lt;BR&gt;
      67Z&lt;BR&gt;
      68P&lt;BR&gt;
      68W&lt;BR&gt;
      68X&lt;BR&gt;
      67Y&amp;nbsp;ALT&lt;BR&gt;
      67Z&amp;nbsp;ALT&lt;BR&gt;&lt;/FONT&gt;
    &lt;/TD&gt;
    &lt;TD BGCOLOR="#cccccc" ALIGN=CENTER&gt;&lt;FONT FACE=ARIAL SIZE=3&gt;
      5050&lt;BR&gt;
      5091&lt;BR&gt;
      5080&lt;BR&gt;
      5087&lt;BR&gt;
      -&lt;BR&gt;
      -&lt;BR&gt;
      -&lt;BR&gt;
      -&lt;BR&gt;
      -&lt;BR&gt;
      -&lt;BR&gt;
      -&lt;BR&gt;
      T63YB&lt;BR&gt;
      T63XB&lt;BR&gt;
      -&lt;BR&gt;
      -&lt;BR&gt;
      -&lt;BR&gt;
      5887&lt;BR&gt;
      5891&lt;BR&gt;
      5880&lt;BR&gt;
      -&lt;BR&gt;
      -&lt;BR&gt;
      -&lt;BR&gt;
      T93Z&lt;BR&gt;
      T93YA&lt;BR&gt;
      T93XA&lt;BR&gt;
      T93YB&lt;BR&gt;
      T93XB&lt;BR&gt;
      -&lt;BR&gt;
      -&lt;BR&gt;
      -&lt;BR&gt;
      -&lt;BR&gt;
      -&lt;BR&gt;&lt;/FONT&gt;
    &lt;/TD&gt;
    &lt;TD BGCOLOR="#cccccc" ALIGN=CENTER&gt;&lt;FONT FACE=ARIAL SIZE=3&gt;
      -&lt;BR&gt;
      -&lt;BR&gt;
      -&lt;BR&gt;
      -&lt;BR&gt;
      -&lt;BR&gt;
      -&lt;BR&gt;
      -&lt;BR&gt;
      -&lt;BR&gt;
      -&lt;BR&gt;
      -&lt;BR&gt;
      8026EKP&lt;BR&gt;
      8026EKW&lt;BR&gt;
      8026EKM&lt;BR&gt;
      8026EKP&lt;BR&gt;
      8026EKB&lt;BR&gt;
      8026EKM&lt;BR&gt;
      1309X&lt;BR&gt;
      1309P&lt;BR&gt;
      1309W&lt;BR&gt;
      8024EKP&lt;BR&gt;
      8024EKW&lt;BR&gt;
      8024EKN&lt;BR&gt;
      RJ-9P/CT9P&lt;BR&gt;
      RJ-9W&lt;BR&gt;
      RJ-9X&lt;BR&gt;
      -&lt;BR&gt;
      -&lt;BR&gt;
      -&lt;BR&gt;
      -&lt;BR&gt;
      -&lt;BR&gt;
      -&lt;BR&gt;
      -&lt;BR&gt;&lt;/FONT&gt;
    &lt;/TD&gt;
    &lt;TD BGCOLOR="#cccccc" ALIGN=CENTER&gt;&lt;FONT FACE=ARIAL SIZE=3&gt;
      -&lt;BR&gt;
      -&lt;BR&gt;
      -&lt;BR&gt;
      -&lt;BR&gt;
      -&lt;BR&gt;
      -&lt;BR&gt;
      -&lt;BR&gt;
      -&lt;BR&gt;
      -&lt;BR&gt;
      -&lt;BR&gt;
      3103P&lt;BR&gt;
      3103Y&lt;BR&gt;
      3103Z&lt;BR&gt;
      3103P&lt;BR&gt;
      3103Y&lt;BR&gt;
      3103Z&lt;BR&gt;
      -&lt;BR&gt;
      -&lt;BR&gt;
      -&lt;BR&gt;
      -&lt;BR&gt;
      -&lt;BR&gt;
      -&lt;BR&gt;
      3105P/3106P&lt;BR&gt;
      3105W/3106W&lt;BR&gt;
      3105X/3106X&lt;BR&gt;
      3105Y/3106Y&lt;BR&gt;
      3105Z/3105Z&lt;BR&gt;
      3102P&lt;BR&gt;
      3102W&lt;BR&gt;
      3102X&lt;BR&gt;
      3102Y&lt;BR&gt;
      3102Z&lt;BR&gt;&lt;/FONT&gt;
    &lt;/TD&gt;
    &lt;TD BGCOLOR="#cccccc" ALIGN=CENTER&gt;&lt;FONT FACE=ARIAL SIZE=3&gt;
      -&lt;BR&gt;
      -&lt;BR&gt;
      -&lt;BR&gt;
      -&lt;BR&gt;
      -&lt;BR&gt;
      -&lt;BR&gt;
      -&lt;BR&gt;
      -&lt;BR&gt;
      -&lt;BR&gt;
      -&lt;BR&gt;
      -&lt;BR&gt;
      -&lt;BR&gt;
      -&lt;BR&gt;
      -&lt;BR&gt;
      -&lt;BR&gt;
      -&lt;BR&gt;
      -&lt;BR&gt;
      -&lt;BR&gt;
      -&lt;BR&gt;
      -&lt;BR&gt;
      -&lt;BR&gt;
      -&lt;BR&gt;
      EVMCBG&lt;BR&gt;
      EVMCCG&lt;BR&gt;
      -&lt;BR&gt;
      -&lt;BR&gt;
      -&lt;BR&gt;
      -&lt;BR&gt;
      -&lt;BR&gt;
      -&lt;BR&gt;
      -&lt;BR&gt;
      -&lt;BR&gt;&lt;/FONT&gt;
    &lt;/TD&gt;
    &lt;TD BGCOLOR="#cccccc" ALIGN=CENTER&gt;&lt;FONT FACE=ARIAL SIZE=3&gt;
      55-1-X&lt;BR&gt;
      55-4-X&lt;BR&gt;
      55-3-X&lt;BR&gt;
      55-2-X&lt;BR&gt;
      -&lt;BR&gt;
      -&lt;BR&gt;
      -&lt;BR&gt;
      -&lt;BR&gt;
      -&lt;BR&gt;
      -&lt;BR&gt;
      -&lt;BR&gt;
      -&lt;BR&gt;
      -&lt;BR&gt;
      -&lt;BR&gt;
      -&lt;BR&gt;
      -&lt;BR&gt;
      50-2-X&lt;BR&gt;
      50-4-X&lt;BR&gt;
      50-3-X&lt;BR&gt;
      -&lt;BR&gt;
      -&lt;BR&gt;
      -&lt;BR&gt;
      64P&lt;BR&gt;
      64W&lt;BR&gt;
      64X&lt;BR&gt;
      64Y&lt;BR&gt;
      64Z&lt;BR&gt;
      -&lt;BR&gt;
      -&lt;BR&gt;
      -&lt;BR&gt;
      -&lt;BR&gt;
      -&lt;BR&gt;&lt;/FONT&gt;
    &lt;/TD&gt;
    &lt;TD BGCOLOR="#cccccc" ALIGN=CENTER&gt;&lt;FONT FACE=ARIAL SIZE=3&gt;
      RT/RTR22&lt;BR&gt;
      RT/RTR22&lt;BR&gt;
      RT/RTR22&lt;BR&gt;
      RT/RTR22&lt;BR&gt;
      RJ/RJR22&lt;BR&gt;
      RJ/RJR22&lt;BR&gt;
      RJ/RJR22&lt;BR&gt;
      RT/RTR26&lt;BR&gt;
      RT/RTR26&lt;BR&gt;
      RT/RTR26&lt;BR&gt;
      RJ/RJR26&lt;BR&gt;
      RJ/RJR26&lt;BR&gt;
      RJ/RJR26&lt;BR&gt;
      RJ/RJR26&lt;BR&gt;
      RJ/RJR26&lt;BR&gt;
      RJ/RJR26&lt;BR&gt;
      RT/RTR24&lt;BR&gt;
      RT/RTR24&lt;BR&gt;
      RT/RTR24&lt;BR&gt;
      RJ/RJR24&lt;BR&gt;
      RJ/RJR24&lt;BR&gt;
      RJ/RJR24&lt;BR&gt;
      RJ/RJR24&lt;BR&gt;
      RJ/RJR24&lt;BR&gt;
      RJ/RJR24&lt;BR&gt;
      -&lt;BR&gt;
      -&lt;BR&gt;
      -&lt;BR&gt;
      -&lt;BR&gt;
      -&lt;BR&gt;
      -&lt;BR&gt;
      -&lt;BR&gt;&lt;/FONT&gt;
    &lt;/TD&gt;
  &lt;/TR&gt;
  &lt;TR&gt;
    &lt;TD COLSPAN=8&gt;&amp;nbsp;
    &lt;/TD&gt;
  &lt;/TR&gt;
  &lt;TR&gt;
    &lt;TD COLSPAN=8&gt;
      &lt;FONT SIZE=4 FACE=ARIAL&gt;&lt;B&gt;SINGLE TURN&lt;/B&gt;&lt;/FONT&gt;
    &lt;/TD&gt;
  &lt;/TR&gt;
  &lt;TR&gt;
    &lt;TD ALIGN=CENTER&gt;
      &lt;FONT SIZE=3 FACE=ARIAL&gt;&lt;B&gt;BOURN&lt;/B&gt;&lt;/FONT&gt;
    &lt;/TD&gt;
    &lt;TD ALIGN=CENTER&gt;
      &lt;FONT SIZE=3 FACE=ARIAL&gt;&lt;B&gt;BI&amp;nbsp;TECH&lt;/B&gt;&lt;/FONT&gt;
    &lt;/TD&gt;
    &lt;TD ALIGN=CENTER&gt;
      &lt;FONT SIZE=3 FACE=ARIAL&gt;&lt;B&gt;DALE-VISHAY&lt;/B&gt;&lt;/FONT&gt;
    &lt;/TD&gt;
    &lt;TD ALIGN=CENTER&gt;
      &lt;FONT SIZE=3 FACE=ARIAL&gt;&lt;B&gt;PHILIPS/MEPCO&lt;/B&gt;&lt;/FONT&gt;
    &lt;/TD&gt;
    &lt;TD ALIGN=CENTER&gt;
      &lt;FONT SIZE=3 FACE=ARIAL&gt;&lt;B&gt;MURATA&lt;/B&gt;&lt;/FONT&gt;
    &lt;/TD&gt;
    &lt;TD ALIGN=CENTER&gt;
      &lt;FONT SIZE=3 FACE=ARIAL&gt;&lt;B&gt;PANASONIC&lt;/B&gt;&lt;/FONT&gt;
    &lt;/TD&gt;
    &lt;TD ALIGN=CENTER&gt;
      &lt;FONT SIZE=3 FACE=ARIAL&gt;&lt;B&gt;SPECTROL&lt;/B&gt;&lt;/FONT&gt;
    &lt;/TD&gt;
    &lt;TD ALIGN=CENTER&gt;
      &lt;FONT SIZE=3 FACE=ARIAL&gt;&lt;B&gt;MILSPEC&lt;/B&gt;&lt;/FONT&gt;
    &lt;/TD&gt;
  &lt;/TR&gt;
  &lt;TR&gt;
    &lt;TD BGCOLOR="#cccccc" ALIGN=CENTER&gt;&lt;FONT FACE=ARIAL SIZE=3&gt;
      3323P&lt;BR&gt;
      3323S&lt;BR&gt;
      3323W&lt;BR&gt;
      3329H&lt;BR&gt;
      3329P&lt;BR&gt;
      3329W&lt;BR&gt;
      3339H&lt;BR&gt;
      3339P&lt;BR&gt;
      3339W&lt;BR&gt;
      3352E&lt;BR&gt;
      3352H&lt;BR&gt;
      3352K&lt;BR&gt;
      3352P&lt;BR&gt;
      3352T&lt;BR&gt;
      3352V&lt;BR&gt;
      3352W&lt;BR&gt;
      3362H&lt;BR&gt;
      3362M&lt;BR&gt;
      3362P&lt;BR&gt;
      3362R&lt;BR&gt;
      3362S&lt;BR&gt;
      3362U&lt;BR&gt;
      3362W&lt;BR&gt;
      3362X&lt;BR&gt;
      3386B&lt;BR&gt;
      3386C&lt;BR&gt;
      3386F&lt;BR&gt;
      3386H&lt;BR&gt;
      3386K&lt;BR&gt;
      3386M&lt;BR&gt;
      3386P&lt;BR&gt;
      3386S&lt;BR&gt;
      3386W&lt;BR&gt;
      3386X&lt;BR&gt;&lt;/FONT&gt;
    &lt;/TD&gt;
    &lt;TD BGCOLOR="#cccccc" ALIGN=CENTER&gt;&lt;FONT FACE=ARIAL SIZE=3&gt;
      25P&lt;BR&gt;
      25S&lt;BR&gt;
      25RX&lt;BR&gt;
      82P&lt;BR&gt;
      82M&lt;BR&gt;
      82PA&lt;BR&gt;
      -&lt;BR&gt;
      -&lt;BR&gt;
      -&lt;BR&gt;
      91E&lt;BR&gt;
      91X&lt;BR&gt;
      91T&lt;BR&gt;
      91B&lt;BR&gt;
      91A&lt;BR&gt;
      91V&lt;BR&gt;
      91W&lt;BR&gt;
      25W&lt;BR&gt;
      25V&lt;BR&gt;
      25P&lt;BR&gt;
      -&lt;BR&gt;
      25S&lt;BR&gt;
      25U&lt;BR&gt;
      25RX&lt;BR&gt;
      25X&lt;BR&gt;
      72XW&lt;BR&gt;
      72XL&lt;BR&gt;
      72PM&lt;BR&gt;
      72RX&lt;BR&gt;
      -&lt;BR&gt;
      72PX&lt;BR&gt;
      72P&lt;BR&gt;
      72RXW&lt;BR&gt;
      72RXL&lt;BR&gt;
      72X&lt;BR&gt;&lt;/FONT&gt;
    &lt;/TD&gt;
    &lt;TD BGCOLOR="#cccccc" ALIGN=CENTER&gt;&lt;FONT FACE=ARIAL SIZE=3&gt;
      -&lt;BR&gt;
      -&lt;BR&gt;
      -&lt;BR&gt;
      T7YB&lt;BR&gt;
      T7YA&lt;BR&gt;
      -&lt;BR&gt;
      -&lt;BR&gt;
      -&lt;BR&gt;
      -&lt;BR&gt;
      -&lt;BR&gt;
      -&lt;BR&gt;
      -&lt;BR&gt;
      -&lt;BR&gt;
      -&lt;BR&gt;
      -&lt;BR&gt;
      -&lt;BR&gt;
      -&lt;BR&gt;
      TXD&lt;BR&gt;
      TYA&lt;BR&gt;
      TYP&lt;BR&gt;
      -&lt;BR&gt;
      TYD&lt;BR&gt;
      TX&lt;BR&gt;
      -&lt;BR&gt;
      150SX&lt;BR&gt;
      100SX&lt;BR&gt;
      102T&lt;BR&gt;
      101S&lt;BR&gt;
      190T&lt;BR&gt;
      150TX&lt;BR&gt;
      101&lt;BR&gt;
      -&lt;BR&gt;
      -&lt;BR&gt;
      101SX&lt;BR&gt;&lt;/FONT&gt;
    &lt;/TD&gt;
    &lt;TD BGCOLOR="#cccccc" ALIGN=CENTER&gt;&lt;FONT FACE=ARIAL SIZE=3&gt;
      ET6P&lt;BR&gt;
      ET6S&lt;BR&gt;
      ET6X&lt;BR&gt;
      RJ-6W/8014EMW&lt;BR&gt;
      RJ-6P/8014EMP&lt;BR&gt;
      RJ-6X/8014EMX&lt;BR&gt;
      TM7W&lt;BR&gt;
      TM7P&lt;BR&gt;
      TM7X&lt;BR&gt;
      -&lt;BR&gt;
      8017SMS&lt;BR&gt;
      -&lt;BR&gt;
      8017SMB&lt;BR&gt;
      8017SMA&lt;BR&gt;
      -&lt;BR&gt;
      -&lt;BR&gt;
      CT-6W&lt;BR&gt;
      CT-6H&lt;BR&gt;
      CT-6P&lt;BR&gt;
      CT-6R&lt;BR&gt;
      -&lt;BR&gt;
      CT-6V&lt;BR&gt;
      CT-6X&lt;BR&gt;
      -&lt;BR&gt;
      -&lt;BR&gt;
      8038EKV&lt;BR&gt;
      -&lt;BR&gt;
      8038EKX&lt;BR&gt;
      -&lt;BR&gt;
      -&lt;BR&gt;
      8038EKP&lt;BR&gt;
      8038EKZ&lt;BR&gt;
      8038EKW&lt;BR&gt;
      -&lt;BR&gt;&lt;/FONT&gt;
    &lt;/TD&gt;
    &lt;TD BGCOLOR="#cccccc" ALIGN=CENTER&gt;&lt;FONT FACE=ARIAL SIZE=3&gt;
      -&lt;BR&gt;
      -&lt;BR&gt;
      -&lt;BR&gt;
      3321H&lt;BR&gt;
      3321P&lt;BR&gt;
      3321N&lt;BR&gt;
      1102H&lt;BR&gt;
      1102P&lt;BR&gt;
      1102T&lt;BR&gt;
      RVA0911V304A&lt;BR&gt;
      -&lt;BR&gt;
      RVA0911H413A&lt;BR&gt;
      RVG0707V100A&lt;BR&gt;
      RVA0607V(H)306A&lt;BR&gt;
      RVA1214H213A&lt;BR&gt;
      -&lt;BR&gt;
      -&lt;BR&gt;
      -&lt;BR&gt;
      -&lt;BR&gt;
      -&lt;BR&gt;
      -&lt;BR&gt;
      -&lt;BR&gt;
      -&lt;BR&gt;
      -&lt;BR&gt;
      3104B&lt;BR&gt;
      3104C&lt;BR&gt;
      3104F&lt;BR&gt;
      3104H&lt;BR&gt;
      -&lt;BR&gt;
      3104M&lt;BR&gt;
      3104P&lt;BR&gt;
      3104S&lt;BR&gt;
      3104W&lt;BR&gt;
      3104X&lt;BR&gt;&lt;/FONT&gt;
    &lt;/TD&gt;
    &lt;TD BGCOLOR="#cccccc" ALIGN=CENTER&gt;&lt;FONT FACE=ARIAL SIZE=3&gt;
      EVMQ0G&lt;BR&gt;
      EVMQIG&lt;BR&gt;
      EVMQ3G&lt;BR&gt;
      EVMS0G&lt;BR&gt;
      EVMQ0G&lt;BR&gt;
      EVMG0G&lt;BR&gt;
      -&lt;BR&gt;
      -&lt;BR&gt;
      -&lt;BR&gt;
      EVMK4GA00B&lt;BR&gt;
      EVM30GA00B&lt;BR&gt;
      EVMK0GA00B&lt;BR&gt;
      EVM38GA00B&lt;BR&gt;
      EVMB6&lt;BR&gt;
      EVLQ0&lt;BR&gt;
      -&lt;BR&gt;
      EVMMSG&lt;BR&gt;
      EVMMBG&lt;BR&gt;
      EVMMAG&lt;BR&gt;
      -&lt;BR&gt;
      -&lt;BR&gt;
      EVMMCS&lt;BR&gt;
      -&lt;BR&gt;
      -&lt;BR&gt;
      -&lt;BR&gt;
      -&lt;BR&gt;
      -&lt;BR&gt;
      EVMM1&lt;BR&gt;
      -&lt;BR&gt;
      -&lt;BR&gt;
      EVMM0&lt;BR&gt;
      -&lt;BR&gt;
      -&lt;BR&gt;
      EVMM3&lt;BR&gt;&lt;/FONT&gt;
    &lt;/TD&gt;
    &lt;TD BGCOLOR="#cccccc" ALIGN=CENTER&gt;&lt;FONT FACE=ARIAL SIZE=3&gt;
      -&lt;BR&gt;
      -&lt;BR&gt;
      -&lt;BR&gt;
      62-3-1&lt;BR&gt;
      62-1-2&lt;BR&gt;
      -&lt;BR&gt;
      -&lt;BR&gt;
      -&lt;BR&gt;
      -&lt;BR&gt;
      -&lt;BR&gt;
      -&lt;BR&gt;
      -&lt;BR&gt;
      -&lt;BR&gt;
      -&lt;BR&gt;
      -&lt;BR&gt;
      -&lt;BR&gt;
      67R&lt;BR&gt;
      -&lt;BR&gt;
      67P&lt;BR&gt;
      -&lt;BR&gt;
      -&lt;BR&gt;
      -&lt;BR&gt;
      -&lt;BR&gt;
      67X&lt;BR&gt;
      63V&lt;BR&gt;
      63S&lt;BR&gt;
      63M&lt;BR&gt;
      -&lt;BR&gt;
      -&lt;BR&gt;
      63H&lt;BR&gt;
      63P&lt;BR&gt;
      -&lt;BR&gt;
      -&lt;BR&gt;
      63X&lt;BR&gt;&lt;/FONT&gt;
    &lt;/TD&gt;
    &lt;TD BGCOLOR="#cccccc" ALIGN=CENTER&gt;&lt;FONT FACE=ARIAL SIZE=3&gt;
      -&lt;BR&gt;
      -&lt;BR&gt;
      -&lt;BR&gt;
      RJ/RJR50&lt;BR&gt;
      RJ/RJR50&lt;BR&gt;
      RJ/RJR50&lt;BR&gt;
      -&lt;BR&gt;
      -&lt;BR&gt;
      -&lt;BR&gt;
      -&lt;BR&gt;
      -&lt;BR&gt;
      -&lt;BR&gt;
      -&lt;BR&gt;
      -&lt;BR&gt;
      -&lt;BR&gt;
      -&lt;BR&gt;
      -&lt;BR&gt;
      -&lt;BR&gt;
      -&lt;BR&gt;
      -&lt;BR&gt;
      -&lt;BR&gt;
      -&lt;BR&gt;
      -&lt;BR&gt;
      -&lt;BR&gt;
      -&lt;BR&gt;
      -&lt;BR&gt;
      -&lt;BR&gt;
      -&lt;BR&gt;
      -&lt;BR&gt;
      -&lt;BR&gt;
      -&lt;BR&gt;
      -&lt;BR&gt;
      -&lt;BR&gt;
      -&lt;BR&gt;&lt;/FONT&gt;
    &lt;/TD&gt;
  &lt;/TR&gt;
&lt;/TABLE&gt;
&lt;P&gt;&amp;nbsp;&lt;P&gt;
&lt;TABLE BORDER=0 CELLSPACING=1 CELLPADDING=3&gt;
  &lt;TR&gt;
    &lt;TD COLSPAN=7&gt;
      &lt;FONT color="#0000FF" SIZE=4 FACE=ARIAL&gt;&lt;B&gt;SMD TRIM-POT CROSS REFERENCE&lt;/B&gt;&lt;/FONT&gt;
      &lt;P&gt;
      &lt;FONT SIZE=4 FACE=ARIAL&gt;&lt;B&gt;MULTI-TURN&lt;/B&gt;&lt;/FONT&gt;
    &lt;/TD&gt;
  &lt;/TR&gt;
  &lt;TR&gt;
    &lt;TD&gt;
      &lt;FONT SIZE=3 FACE=ARIAL&gt;&lt;B&gt;BOURNS&lt;/B&gt;&lt;/FONT&gt;
    &lt;/TD&gt;
    &lt;TD&gt;
      &lt;FONT SIZE=3 FACE=ARIAL&gt;&lt;B&gt;BI&amp;nbsp;TECH&lt;/B&gt;&lt;/FONT&gt;
    &lt;/TD&gt;
    &lt;TD&gt;
      &lt;FONT SIZE=3 FACE=ARIAL&gt;&lt;B&gt;DALE-VISHAY&lt;/B&gt;&lt;/FONT&gt;
    &lt;/TD&gt;
    &lt;TD&gt;
      &lt;FONT SIZE=3 FACE=ARIAL&gt;&lt;B&gt;PHILIPS/MEPCO&lt;/B&gt;&lt;/FONT&gt;
    &lt;/TD&gt;
    &lt;TD&gt;
      &lt;FONT SIZE=3 FACE=ARIAL&gt;&lt;B&gt;PANASONIC&lt;/B&gt;&lt;/FONT&gt;
    &lt;/TD&gt;
    &lt;TD&gt;
      &lt;FONT SIZE=3 FACE=ARIAL&gt;&lt;B&gt;TOCOS&lt;/B&gt;&lt;/FONT&gt;
    &lt;/TD&gt;
    &lt;TD&gt;
      &lt;FONT SIZE=3 FACE=ARIAL&gt;&lt;B&gt;AUX/KYOCERA&lt;/B&gt;&lt;/FONT&gt;
    &lt;/TD&gt;
  &lt;/TR&gt;
  &lt;TR&gt;
    &lt;TD BGCOLOR="#cccccc" ALIGN=CENTER&gt;&lt;FONT FACE=ARIAL SIZE=3&gt;
      3224G&lt;BR&gt;
      3224J&lt;BR&gt;
      3224W&lt;BR&gt;
      3269P&lt;BR&gt;
      3269W&lt;BR&gt;
      3269X&lt;BR&gt;&lt;/FONT&gt;
    &lt;/TD&gt;
    &lt;TD BGCOLOR="#cccccc" ALIGN=CENTER&gt;&lt;FONT FACE=ARIAL SIZE=3&gt;
      44G&lt;BR&gt;
      44J&lt;BR&gt;
      44W&lt;BR&gt;
      84P&lt;BR&gt;
      84W&lt;BR&gt;
      84X&lt;BR&gt;&lt;/FONT&gt;
    &lt;/TD&gt;
    &lt;TD BGCOLOR="#cccccc" ALIGN=CENTER&gt;&lt;FONT FACE=ARIAL SIZE=3&gt;
      -&lt;BR&gt;
      -&lt;BR&gt;
      -&lt;BR&gt;
      ST63Z&lt;BR&gt;
      ST63Y&lt;BR&gt;
      -&lt;BR&gt;&lt;/FONT&gt;
    &lt;/TD&gt;
    &lt;TD BGCOLOR="#cccccc" ALIGN=CENTER&gt;&lt;FONT FACE=ARIAL SIZE=3&gt;
      -&lt;BR&gt;
      -&lt;BR&gt;
      -&lt;BR&gt;
      ST5P&lt;BR&gt;
      ST5W&lt;BR&gt;
      ST5X&lt;BR&gt;&lt;/FONT&gt;
    &lt;/TD&gt;
    &lt;TD BGCOLOR="#cccccc" ALIGN=CENTER&gt;&lt;FONT FACE=ARIAL SIZE=3&gt;
      -&lt;BR&gt;
      -&lt;BR&gt;
      -&lt;BR&gt;
      -&lt;BR&gt;
      -&lt;BR&gt;
      -&lt;BR&gt;&lt;/FONT&gt;
    &lt;/TD&gt;
    &lt;TD BGCOLOR="#cccccc" ALIGN=CENTER&gt;&lt;FONT FACE=ARIAL SIZE=3&gt;
      -&lt;BR&gt;
      -&lt;BR&gt;
      -&lt;BR&gt;
      -&lt;BR&gt;
      -&lt;BR&gt;
      -&lt;BR&gt;&lt;/FONT&gt;
    &lt;/TD&gt;
    &lt;TD BGCOLOR="#cccccc" ALIGN=CENTER&gt;&lt;FONT FACE=ARIAL SIZE=3&gt;
      -&lt;BR&gt;
      -&lt;BR&gt;
      -&lt;BR&gt;
      -&lt;BR&gt;
      -&lt;BR&gt;
      -&lt;BR&gt;&lt;/FONT&gt;
    &lt;/TD&gt;
  &lt;/TR&gt;
  &lt;TR&gt;
    &lt;TD COLSPAN=7&gt;&amp;nbsp;
    &lt;/TD&gt;
  &lt;/TR&gt;
  &lt;TR&gt;
    &lt;TD COLSPAN=7&gt;
      &lt;FONT SIZE=4 FACE=ARIAL&gt;&lt;B&gt;SINGLE TURN&lt;/B&gt;&lt;/FONT&gt;
    &lt;/TD&gt;
  &lt;/TR&gt;
  &lt;TR&gt;
    &lt;TD&gt;
      &lt;FONT SIZE=3 FACE=ARIAL&gt;&lt;B&gt;BOURNS&lt;/B&gt;&lt;/FONT&gt;
    &lt;/TD&gt;
    &lt;TD&gt;
      &lt;FONT SIZE=3 FACE=ARIAL&gt;&lt;B&gt;BI&amp;nbsp;TECH&lt;/B&gt;&lt;/FONT&gt;
    &lt;/TD&gt;
    &lt;TD&gt;
      &lt;FONT SIZE=3 FACE=ARIAL&gt;&lt;B&gt;DALE-VISHAY&lt;/B&gt;&lt;/FONT&gt;
    &lt;/TD&gt;
    &lt;TD&gt;
      &lt;FONT SIZE=3 FACE=ARIAL&gt;&lt;B&gt;PHILIPS/MEPCO&lt;/B&gt;&lt;/FONT&gt;
    &lt;/TD&gt;
    &lt;TD&gt;
      &lt;FONT SIZE=3 FACE=ARIAL&gt;&lt;B&gt;PANASONIC&lt;/B&gt;&lt;/FONT&gt;
    &lt;/TD&gt;
    &lt;TD&gt;
      &lt;FONT SIZE=3 FACE=ARIAL&gt;&lt;B&gt;TOCOS&lt;/B&gt;&lt;/FONT&gt;
    &lt;/TD&gt;
    &lt;TD&gt;
      &lt;FONT SIZE=3 FACE=ARIAL&gt;&lt;B&gt;AUX/KYOCERA&lt;/B&gt;&lt;/FONT&gt;
    &lt;/TD&gt;
  &lt;/TR&gt;
  &lt;TR&gt;
    &lt;TD BGCOLOR="#cccccc" ALIGN=CENTER&gt;&lt;FONT FACE=ARIAL SIZE=3&gt;
      3314G&lt;BR&gt;
      3314J&lt;BR&gt;
      3364A/B&lt;BR&gt;
      3364C/D&lt;BR&gt;
      3364W/X&lt;BR&gt;
      3313G&lt;BR&gt;
      3313J&lt;BR&gt;&lt;/FONT&gt;
    &lt;/TD&gt;
    &lt;TD BGCOLOR="#cccccc" ALIGN=CENTER&gt;&lt;FONT FACE=ARIAL SIZE=3&gt;
      23B&lt;BR&gt;
      23A&lt;BR&gt;
      21X&lt;BR&gt;
      21W&lt;BR&gt;
      -&lt;BR&gt;
      22B&lt;BR&gt;
      22A&lt;BR&gt;&lt;/FONT&gt;
    &lt;/TD&gt;
    &lt;TD BGCOLOR="#cccccc" ALIGN=CENTER&gt;&lt;FONT FACE=ARIAL SIZE=3&gt;
      ST5YL/ST53YL&lt;BR&gt;
      ST5YJ/5T53YJ&lt;BR&gt;
      ST-23A&lt;BR&gt;
      ST-22B&lt;BR&gt;
      ST-22&lt;BR&gt;
      -&lt;BR&gt;
      -&lt;BR&gt;&lt;/FONT&gt;
    &lt;/TD&gt;
    &lt;TD BGCOLOR="#cccccc" ALIGN=CENTER&gt;&lt;FONT FACE=ARIAL SIZE=3&gt;
      ST-4B&lt;BR&gt;
      ST-4A&lt;BR&gt;
      -&lt;BR&gt;
      -&lt;BR&gt;
      -&lt;BR&gt;
      ST-3B&lt;BR&gt;
      ST-3A&lt;BR&gt;&lt;/FONT&gt;
    &lt;/TD&gt;
    &lt;TD BGCOLOR="#cccccc" ALIGN=CENTER&gt;&lt;FONT FACE=ARIAL SIZE=3&gt;
      -&lt;BR&gt;
      EVM-6YS&lt;BR&gt;
      EVM-1E&lt;BR&gt;
      EVM-1G&lt;BR&gt;
      EVM-1D&lt;BR&gt;
      -&lt;BR&gt;
      -&lt;BR&gt;&lt;/FONT&gt;
    &lt;/TD&gt;
    &lt;TD BGCOLOR="#cccccc" ALIGN=CENTER&gt;&lt;FONT FACE=ARIAL SIZE=3&gt;
      G4B&lt;BR&gt;
      G4A&lt;BR&gt;
      TR04-3S1&lt;BR&gt;
      TRG04-2S1&lt;BR&gt;
      -&lt;BR&gt;
      -&lt;BR&gt;
      -&lt;BR&gt;&lt;/FONT&gt;
    &lt;/TD&gt;
    &lt;TD BGCOLOR="#cccccc" ALIGN=CENTER&gt;&lt;FONT FACE=ARIAL SIZE=3&gt;
      -&lt;BR&gt;
      -&lt;BR&gt;
      DVR-43A&lt;BR&gt;
      CVR-42C&lt;BR&gt;
      CVR-42A/C&lt;BR&gt;
      -&lt;BR&gt;
      -&lt;BR&gt;&lt;/FONT&gt;
    &lt;/TD&gt;
  &lt;/TR&gt;
&lt;/TABLE&gt;
&lt;P&gt;
&lt;FONT SIZE=4 FACE=ARIAL&gt;&lt;B&gt;ALT =&amp;nbsp;ALTERNATE&lt;/B&gt;&lt;/FONT&gt;
&lt;P&gt;

&amp;nbsp;
&lt;P&gt;
&lt;/td&gt;
&lt;/tr&gt;
&lt;/table&gt;</description>
<packages>
<package name="C0603" urn="urn:adsk.eagle:footprint:23123/1" library_version="3">
<description>&lt;b&gt;CAPACITOR&lt;/b&gt;</description>
<wire x1="-1.473" y1="0.983" x2="1.473" y2="0.983" width="0.0508" layer="39"/>
<wire x1="1.473" y1="0.983" x2="1.473" y2="-0.983" width="0.0508" layer="39"/>
<wire x1="1.473" y1="-0.983" x2="-1.473" y2="-0.983" width="0.0508" layer="39"/>
<wire x1="-1.473" y1="-0.983" x2="-1.473" y2="0.983" width="0.0508" layer="39"/>
<wire x1="-0.356" y1="0.432" x2="0.356" y2="0.432" width="0.1016" layer="51"/>
<wire x1="-0.356" y1="-0.419" x2="0.356" y2="-0.419" width="0.1016" layer="51"/>
<smd name="1" x="-0.85" y="0" dx="1.1" dy="1" layer="1"/>
<smd name="2" x="0.85" y="0" dx="1.1" dy="1" layer="1"/>
<text x="-0.635" y="0.635" size="1.27" layer="25">&gt;NAME</text>
<text x="-0.635" y="-1.905" size="1.27" layer="27">&gt;VALUE</text>
<rectangle x1="-0.8382" y1="-0.4699" x2="-0.3381" y2="0.4801" layer="51"/>
<rectangle x1="0.3302" y1="-0.4699" x2="0.8303" y2="0.4801" layer="51"/>
<rectangle x1="-0.1999" y1="-0.3" x2="0.1999" y2="0.3" layer="35"/>
</package>
<package name="R0805" urn="urn:adsk.eagle:footprint:23045/1" library_version="3">
<description>&lt;b&gt;RESISTOR&lt;/b&gt;&lt;p&gt;</description>
<wire x1="-0.41" y1="0.635" x2="0.41" y2="0.635" width="0.1524" layer="51"/>
<wire x1="-0.41" y1="-0.635" x2="0.41" y2="-0.635" width="0.1524" layer="51"/>
<wire x1="-1.973" y1="0.983" x2="1.973" y2="0.983" width="0.0508" layer="39"/>
<wire x1="1.973" y1="0.983" x2="1.973" y2="-0.983" width="0.0508" layer="39"/>
<wire x1="1.973" y1="-0.983" x2="-1.973" y2="-0.983" width="0.0508" layer="39"/>
<wire x1="-1.973" y1="-0.983" x2="-1.973" y2="0.983" width="0.0508" layer="39"/>
<smd name="1" x="-0.95" y="0" dx="1.3" dy="1.5" layer="1"/>
<smd name="2" x="0.95" y="0" dx="1.3" dy="1.5" layer="1"/>
<text x="-0.635" y="1.27" size="1.27" layer="25">&gt;NAME</text>
<text x="-0.635" y="-2.54" size="1.27" layer="27">&gt;VALUE</text>
<rectangle x1="0.4064" y1="-0.6985" x2="1.0564" y2="0.7015" layer="51"/>
<rectangle x1="-1.0668" y1="-0.6985" x2="-0.4168" y2="0.7015" layer="51"/>
<rectangle x1="-0.1999" y1="-0.5001" x2="0.1999" y2="0.5001" layer="35"/>
</package>
</packages>
<packages3d>
<package3d name="C0603" urn="urn:adsk.eagle:package:23616/2" type="model" library_version="3">
<description>CAPACITOR</description>
<packageinstances>
<packageinstance name="C0603"/>
</packageinstances>
</package3d>
<package3d name="R0805" urn="urn:adsk.eagle:package:23553/2" type="model" library_version="3">
<description>RESISTOR</description>
<packageinstances>
<packageinstance name="R0805"/>
</packageinstances>
</package3d>
</packages3d>
</library>
<library name="untiec">
<packages>
<package name="QFP80P1200X1200X120-44" urn="urn:adsk.eagle:footprint:7630333/1">
<description>44-QFP, 0.80 mm pitch, 12.00 mm span, 10.00 X 10.00 X 1.20 mm body
&lt;p&gt;44-pin QFP package with 0.80 mm pitch, 12.00 mm lead span1 X 12.00 mm lead span2 with body size 10.00 X 10.00 X 1.20 mm&lt;/p&gt;</description>
<circle x="-5.703" y="4.7775" radius="0.25" width="0" layer="21"/>
<wire x1="-5" y1="4.5275" x2="-5" y2="5" width="0.12" layer="21"/>
<wire x1="-5" y1="5" x2="-4.5275" y2="5" width="0.12" layer="21"/>
<wire x1="5" y1="4.5275" x2="5" y2="5" width="0.12" layer="21"/>
<wire x1="5" y1="5" x2="4.5275" y2="5" width="0.12" layer="21"/>
<wire x1="5" y1="-4.5275" x2="5" y2="-5" width="0.12" layer="21"/>
<wire x1="5" y1="-5" x2="4.5275" y2="-5" width="0.12" layer="21"/>
<wire x1="-5" y1="-4.5275" x2="-5" y2="-5" width="0.12" layer="21"/>
<wire x1="-5" y1="-5" x2="-4.5275" y2="-5" width="0.12" layer="21"/>
<wire x1="5" y1="-5" x2="-5" y2="-5" width="0.12" layer="51"/>
<wire x1="-5" y1="-5" x2="-5" y2="5" width="0.12" layer="51"/>
<wire x1="-5" y1="5" x2="5" y2="5" width="0.12" layer="51"/>
<wire x1="5" y1="5" x2="5" y2="-5" width="0.12" layer="51"/>
<smd name="1" x="-5.6713" y="4" dx="1.4692" dy="0.5471" layer="1"/>
<smd name="2" x="-5.6713" y="3.2" dx="1.4692" dy="0.5471" layer="1"/>
<smd name="3" x="-5.6713" y="2.4" dx="1.4692" dy="0.5471" layer="1"/>
<smd name="4" x="-5.6713" y="1.6" dx="1.4692" dy="0.5471" layer="1"/>
<smd name="5" x="-5.6713" y="0.8" dx="1.4692" dy="0.5471" layer="1"/>
<smd name="6" x="-5.6713" y="0" dx="1.4692" dy="0.5471" layer="1"/>
<smd name="7" x="-5.6713" y="-0.8" dx="1.4692" dy="0.5471" layer="1"/>
<smd name="8" x="-5.6713" y="-1.6" dx="1.4692" dy="0.5471" layer="1"/>
<smd name="9" x="-5.6713" y="-2.4" dx="1.4692" dy="0.5471" layer="1"/>
<smd name="10" x="-5.6713" y="-3.2" dx="1.4692" dy="0.5471" layer="1"/>
<smd name="11" x="-5.6713" y="-4" dx="1.4692" dy="0.5471" layer="1"/>
<smd name="12" x="-4" y="-5.6713" dx="1.4692" dy="0.5471" layer="1" rot="R90"/>
<smd name="13" x="-3.2" y="-5.6713" dx="1.4692" dy="0.5471" layer="1" rot="R90"/>
<smd name="14" x="-2.4" y="-5.6713" dx="1.4692" dy="0.5471" layer="1" rot="R90"/>
<smd name="15" x="-1.6" y="-5.6713" dx="1.4692" dy="0.5471" layer="1" rot="R90"/>
<smd name="16" x="-0.8" y="-5.6713" dx="1.4692" dy="0.5471" layer="1" rot="R90"/>
<smd name="17" x="0" y="-5.6713" dx="1.4692" dy="0.5471" layer="1" rot="R90"/>
<smd name="18" x="0.8" y="-5.6713" dx="1.4692" dy="0.5471" layer="1" rot="R90"/>
<smd name="19" x="1.6" y="-5.6713" dx="1.4692" dy="0.5471" layer="1" rot="R90"/>
<smd name="20" x="2.4" y="-5.6713" dx="1.4692" dy="0.5471" layer="1" rot="R90"/>
<smd name="21" x="3.2" y="-5.6713" dx="1.4692" dy="0.5471" layer="1" rot="R90"/>
<smd name="22" x="4" y="-5.6713" dx="1.4692" dy="0.5471" layer="1" rot="R90"/>
<smd name="23" x="5.6713" y="-4" dx="1.4692" dy="0.5471" layer="1"/>
<smd name="24" x="5.6713" y="-3.2" dx="1.4692" dy="0.5471" layer="1"/>
<smd name="25" x="5.6713" y="-2.4" dx="1.4692" dy="0.5471" layer="1"/>
<smd name="26" x="5.6713" y="-1.6" dx="1.4692" dy="0.5471" layer="1"/>
<smd name="27" x="5.6713" y="-0.8" dx="1.4692" dy="0.5471" layer="1"/>
<smd name="28" x="5.6713" y="0" dx="1.4692" dy="0.5471" layer="1"/>
<smd name="29" x="5.6713" y="0.8" dx="1.4692" dy="0.5471" layer="1"/>
<smd name="30" x="5.6713" y="1.6" dx="1.4692" dy="0.5471" layer="1"/>
<smd name="31" x="5.6713" y="2.4" dx="1.4692" dy="0.5471" layer="1"/>
<smd name="32" x="5.6713" y="3.2" dx="1.4692" dy="0.5471" layer="1"/>
<smd name="33" x="5.6713" y="4" dx="1.4692" dy="0.5471" layer="1"/>
<smd name="34" x="4" y="5.6713" dx="1.4692" dy="0.5471" layer="1" rot="R90"/>
<smd name="35" x="3.2" y="5.6713" dx="1.4692" dy="0.5471" layer="1" rot="R90"/>
<smd name="36" x="2.4" y="5.6713" dx="1.4692" dy="0.5471" layer="1" rot="R90"/>
<smd name="37" x="1.6" y="5.6713" dx="1.4692" dy="0.5471" layer="1" rot="R90"/>
<smd name="38" x="0.8" y="5.6713" dx="1.4692" dy="0.5471" layer="1" rot="R90"/>
<smd name="39" x="0" y="5.6713" dx="1.4692" dy="0.5471" layer="1" rot="R90"/>
<smd name="40" x="-0.8" y="5.6713" dx="1.4692" dy="0.5471" layer="1" rot="R90"/>
<smd name="41" x="-1.6" y="5.6713" dx="1.4692" dy="0.5471" layer="1" rot="R90"/>
<smd name="42" x="-2.4" y="5.6713" dx="1.4692" dy="0.5471" layer="1" rot="R90"/>
<smd name="43" x="-3.2" y="5.6713" dx="1.4692" dy="0.5471" layer="1" rot="R90"/>
<smd name="44" x="-4" y="5.6713" dx="1.4692" dy="0.5471" layer="1" rot="R90"/>
<text x="0" y="7.0409" size="1.27" layer="25" align="bottom-center">&gt;NAME</text>
<text x="0" y="-7.0409" size="1.27" layer="27" align="top-center">&gt;VALUE</text>
</package>
<package name="CAPC2012X70" urn="urn:adsk.eagle:footprint:7642708/1" locally_modified="yes">
<description>Chip, 2.00 X 1.25 X 0.70 mm body
&lt;p&gt;Chip package with body size 2.00 X 1.25 X 0.70 mm&lt;/p&gt;</description>
<wire x1="1.05" y1="-0.675" x2="-1.05" y2="-0.675" width="0.12" layer="51"/>
<wire x1="-1.05" y1="-0.675" x2="-1.05" y2="0.675" width="0.12" layer="51"/>
<wire x1="-1.05" y1="0.675" x2="1.05" y2="0.675" width="0.12" layer="51"/>
<wire x1="1.05" y1="0.675" x2="1.05" y2="-0.675" width="0.12" layer="51"/>
<smd name="1" x="-0.8883" y="0" dx="1.0525" dy="1.3791" layer="1"/>
<smd name="2" x="0.8883" y="0" dx="1.0525" dy="1.3791" layer="1"/>
<text x="0" y="1.6386" size="1.27" layer="25" align="bottom-center">&gt;NAME</text>
<text x="0" y="-1.6386" size="1.27" layer="27" align="top-center">&gt;VALUE</text>
</package>
<package name="OSCCC320X250X70" urn="urn:adsk.eagle:footprint:7636332/1">
<description>Oscillator Corner Concave, 3.20 X 2.50 X 0.70 mm body
&lt;p&gt;Oscillator Corner Concave package with body size 3.20 X 2.50 X 0.70 mm&lt;/p&gt;</description>
<circle x="-2.4099" y="-0.925" radius="0.25" width="0" layer="21"/>
<wire x1="-1.9659" y1="0.0401" x2="-1.9659" y2="-0.0401" width="0.12" layer="21"/>
<wire x1="1.9659" y1="0.0401" x2="1.9659" y2="-0.0401" width="0.12" layer="21"/>
<wire x1="-0.1901" y1="1.6159" x2="0.1901" y2="1.6159" width="0.12" layer="21"/>
<wire x1="-0.1901" y1="-1.6159" x2="0.1901" y2="-1.6159" width="0.12" layer="21"/>
<wire x1="1.6" y1="-1.25" x2="-1.6" y2="-1.25" width="0.12" layer="51"/>
<wire x1="-1.6" y1="-1.25" x2="-1.6" y2="1.25" width="0.12" layer="51"/>
<wire x1="-1.6" y1="1.25" x2="1.6" y2="1.25" width="0.12" layer="51"/>
<wire x1="1.6" y1="1.25" x2="1.6" y2="-1.25" width="0.12" layer="51"/>
<smd name="1" x="-1.175" y="-0.925" dx="1.4618" dy="1.2618" layer="1"/>
<smd name="2" x="1.175" y="-0.925" dx="1.4618" dy="1.2618" layer="1"/>
<smd name="3" x="1.175" y="0.925" dx="1.4618" dy="1.2618" layer="1"/>
<smd name="4" x="-1.175" y="0.925" dx="1.4618" dy="1.2618" layer="1"/>
<text x="0" y="2.2509" size="1.27" layer="25" align="bottom-center">&gt;NAME</text>
<text x="0" y="-2.2509" size="1.27" layer="27" align="top-center">&gt;VALUE</text>
</package>
<package name="HDRV11W50P200_1X11_2200X200X600B" urn="urn:adsk.eagle:footprint:7630392/1" locally_modified="yes">
<description>Single-row, 11-pin Pin Header (Male) Straight, 2.00 mm (0.08 in) col pitch, 4.00 mm mating length, 22.00 X 2.00 X 6.00 mm body
&lt;p&gt;Single-row (1X11), 11-pin Pin Header (Male) Straight package with 2.00 mm (0.08 in) col pitch, 0.50 mm lead width, 2.80 mm tail length and 4.00 mm mating length with overall size 22.00 X 2.00 X 6.00 mm, pin pattern - clockwise from top left&lt;/p&gt;</description>
<pad name="1" x="0" y="0" drill="0.9071" diameter="1.5071"/>
<pad name="2" x="2" y="0" drill="0.9071" diameter="1.5071"/>
<pad name="3" x="4" y="0" drill="0.9071" diameter="1.5071"/>
<pad name="4" x="6" y="0" drill="0.9071" diameter="1.5071"/>
<pad name="5" x="8" y="0" drill="0.9071" diameter="1.5071"/>
<pad name="6" x="10" y="0" drill="0.9071" diameter="1.5071"/>
<pad name="7" x="12" y="0" drill="0.9071" diameter="1.5071"/>
<pad name="8" x="14" y="0" drill="0.9071" diameter="1.5071"/>
<pad name="9" x="16" y="0" drill="0.9071" diameter="1.5071"/>
<pad name="10" x="18" y="0" drill="0.9071" diameter="1.5071"/>
<pad name="11" x="20" y="0" drill="0.9071" diameter="1.5071"/>
<text x="0" y="2.3966" size="1.27" layer="25" align="bottom-center">&gt;NAME</text>
<text x="0" y="-1.6426" size="1.27" layer="27" align="top-center">&gt;VALUE</text>
</package>
</packages>
<packages3d>
<package3d name="QFP80P1200X1200X120-44" urn="urn:adsk.eagle:package:7630256/1" type="model">
<description>44-QFP, 0.80 mm pitch, 12.00 mm span, 10.00 X 10.00 X 1.20 mm body
&lt;p&gt;44-pin QFP package with 0.80 mm pitch, 12.00 mm lead span1 X 12.00 mm lead span2 with body size 10.00 X 10.00 X 1.20 mm&lt;/p&gt;</description>
<packageinstances>
<packageinstance name="QFP80P1200X1200X120-44"/>
</packageinstances>
</package3d>
<package3d name="CAPC2012X70" urn="urn:adsk.eagle:package:7642704/1" locally_modified="yes" type="model">
<description>Chip, 2.00 X 1.25 X 0.70 mm body
&lt;p&gt;Chip package with body size 2.00 X 1.25 X 0.70 mm&lt;/p&gt;</description>
<packageinstances>
<packageinstance name="CAPC2012X70"/>
</packageinstances>
</package3d>
<package3d name="OSCCC320X250X70" urn="urn:adsk.eagle:package:7635431/1" type="model">
<description>Oscillator Corner Concave, 3.20 X 2.50 X 0.70 mm body
&lt;p&gt;Oscillator Corner Concave package with body size 3.20 X 2.50 X 0.70 mm&lt;/p&gt;</description>
<packageinstances>
<packageinstance name="OSCCC320X250X70"/>
</packageinstances>
</package3d>
<package3d name="HDRV11W50P200_1X11_2200X200X600B" urn="urn:adsk.eagle:package:7630373/1" locally_modified="yes" type="model">
<description>Single-row, 11-pin Pin Header (Male) Straight, 2.00 mm (0.08 in) col pitch, 4.00 mm mating length, 22.00 X 2.00 X 6.00 mm body
&lt;p&gt;Single-row (1X11), 11-pin Pin Header (Male) Straight package with 2.00 mm (0.08 in) col pitch, 0.50 mm lead width, 2.80 mm tail length and 4.00 mm mating length with overall size 22.00 X 2.00 X 6.00 mm, pin pattern - clockwise from top left&lt;/p&gt;</description>
<packageinstances>
<packageinstance name="HDRV11W50P200_1X11_2200X200X600B"/>
</packageinstances>
</package3d>
</packages3d>
</library>
</libraries>
<attributes>
</attributes>
<variantdefs>
</variantdefs>
<classes>
<class number="0" name="default" width="0.254" drill="0">
<clearance class="0" value="0.254"/>
</class>
</classes>
<designrules name="default *">
<description language="de">&lt;b&gt;EAGLE Design Rules&lt;/b&gt;
&lt;p&gt;
Die Standard-Design-Rules sind so gewählt, dass sie für 
die meisten Anwendungen passen. Sollte ihre Platine 
besondere Anforderungen haben, treffen Sie die erforderlichen
Einstellungen hier und speichern die Design Rules unter 
einem neuen Namen ab.</description>
<description language="en">&lt;b&gt;EAGLE Design Rules&lt;/b&gt;
&lt;p&gt;
The default Design Rules have been set to cover
a wide range of applications. Your particular design
may have different requirements, so please make the
necessary adjustments and save your customized
design rules under a new name.</description>
<param name="layerSetup" value="(1*16)"/>
<param name="mtCopper" value="0.035mm 0.035mm 0.035mm 0.035mm 0.035mm 0.035mm 0.035mm 0.035mm 0.035mm 0.035mm 0.035mm 0.035mm 0.035mm 0.035mm 0.035mm 0.035mm"/>
<param name="mtIsolate" value="1.5mm 0.15mm 0.2mm 0.15mm 0.2mm 0.15mm 0.2mm 0.15mm 0.2mm 0.15mm 0.2mm 0.15mm 0.2mm 0.15mm 0.2mm"/>
<param name="mdWireWire" value="6mil"/>
<param name="mdWirePad" value="6mil"/>
<param name="mdWireVia" value="6mil"/>
<param name="mdPadPad" value="6mil"/>
<param name="mdPadVia" value="6mil"/>
<param name="mdViaVia" value="6mil"/>
<param name="mdSmdPad" value="6mil"/>
<param name="mdSmdVia" value="6mil"/>
<param name="mdSmdSmd" value="6mil"/>
<param name="mdViaViaSameLayer" value="6mil"/>
<param name="mnLayersViaInSmd" value="2"/>
<param name="mdCopperDimension" value="10mil"/>
<param name="mdDrill" value="6mil"/>
<param name="mdSmdStop" value="0mil"/>
<param name="msWidth" value="6mil"/>
<param name="msDrill" value="0.35mm"/>
<param name="msMicroVia" value="9.99mm"/>
<param name="msBlindViaRatio" value="0.5"/>
<param name="rvPadTop" value="0.25"/>
<param name="rvPadInner" value="0.25"/>
<param name="rvPadBottom" value="0.25"/>
<param name="rvViaOuter" value="0.25"/>
<param name="rvViaInner" value="0.25"/>
<param name="rvMicroViaOuter" value="0.25"/>
<param name="rvMicroViaInner" value="0.25"/>
<param name="rlMinPadTop" value="10mil"/>
<param name="rlMaxPadTop" value="20mil"/>
<param name="rlMinPadInner" value="10mil"/>
<param name="rlMaxPadInner" value="20mil"/>
<param name="rlMinPadBottom" value="10mil"/>
<param name="rlMaxPadBottom" value="20mil"/>
<param name="rlMinViaOuter" value="8mil"/>
<param name="rlMaxViaOuter" value="20mil"/>
<param name="rlMinViaInner" value="8mil"/>
<param name="rlMaxViaInner" value="20mil"/>
<param name="rlMinMicroViaOuter" value="4mil"/>
<param name="rlMaxMicroViaOuter" value="20mil"/>
<param name="rlMinMicroViaInner" value="4mil"/>
<param name="rlMaxMicroViaInner" value="20mil"/>
<param name="psTop" value="-1"/>
<param name="psBottom" value="-1"/>
<param name="psFirst" value="-1"/>
<param name="psElongationLong" value="100"/>
<param name="psElongationOffset" value="100"/>
<param name="mvStopFrame" value="1"/>
<param name="mvCreamFrame" value="0"/>
<param name="mlMinStopFrame" value="4mil"/>
<param name="mlMaxStopFrame" value="4mil"/>
<param name="mlMinCreamFrame" value="0mil"/>
<param name="mlMaxCreamFrame" value="0mil"/>
<param name="mlViaStopLimit" value="0mil"/>
<param name="srRoundness" value="0"/>
<param name="srMinRoundness" value="0mil"/>
<param name="srMaxRoundness" value="0mil"/>
<param name="slThermalIsolate" value="10mil"/>
<param name="slThermalsForVias" value="0"/>
<param name="dpMaxLengthDifference" value="10mm"/>
<param name="dpGapFactor" value="2.5"/>
<param name="checkAngle" value="0"/>
<param name="checkFont" value="1"/>
<param name="checkRestrict" value="1"/>
<param name="checkStop" value="0"/>
<param name="checkValues" value="0"/>
<param name="checkNames" value="1"/>
<param name="checkWireStubs" value="1"/>
<param name="checkPolygonWidth" value="0"/>
<param name="useDiameter" value="13"/>
<param name="maxErrors" value="50"/>
</designrules>
<autorouter>
<pass name="Default">
<param name="RoutingGrid" value="50mil"/>
<param name="AutoGrid" value="1"/>
<param name="Efforts" value="0"/>
<param name="TopRouterVariant" value="1"/>
<param name="tpViaShape" value="round"/>
<param name="PrefDir.1" value="a"/>
<param name="PrefDir.2" value="0"/>
<param name="PrefDir.3" value="0"/>
<param name="PrefDir.4" value="0"/>
<param name="PrefDir.5" value="0"/>
<param name="PrefDir.6" value="0"/>
<param name="PrefDir.7" value="0"/>
<param name="PrefDir.8" value="0"/>
<param name="PrefDir.9" value="0"/>
<param name="PrefDir.10" value="0"/>
<param name="PrefDir.11" value="0"/>
<param name="PrefDir.12" value="0"/>
<param name="PrefDir.13" value="0"/>
<param name="PrefDir.14" value="0"/>
<param name="PrefDir.15" value="0"/>
<param name="PrefDir.16" value="a"/>
<param name="cfVia" value="8"/>
<param name="cfNonPref" value="5"/>
<param name="cfChangeDir" value="2"/>
<param name="cfOrthStep" value="2"/>
<param name="cfDiagStep" value="3"/>
<param name="cfExtdStep" value="0"/>
<param name="cfBonusStep" value="1"/>
<param name="cfMalusStep" value="1"/>
<param name="cfPadImpact" value="4"/>
<param name="cfSmdImpact" value="4"/>
<param name="cfBusImpact" value="0"/>
<param name="cfHugging" value="3"/>
<param name="cfAvoid" value="4"/>
<param name="cfPolygon" value="10"/>
<param name="cfBase.1" value="0"/>
<param name="cfBase.2" value="1"/>
<param name="cfBase.3" value="1"/>
<param name="cfBase.4" value="1"/>
<param name="cfBase.5" value="1"/>
<param name="cfBase.6" value="1"/>
<param name="cfBase.7" value="1"/>
<param name="cfBase.8" value="1"/>
<param name="cfBase.9" value="1"/>
<param name="cfBase.10" value="1"/>
<param name="cfBase.11" value="1"/>
<param name="cfBase.12" value="1"/>
<param name="cfBase.13" value="1"/>
<param name="cfBase.14" value="1"/>
<param name="cfBase.15" value="1"/>
<param name="cfBase.16" value="0"/>
<param name="mnVias" value="20"/>
<param name="mnSegments" value="9999"/>
<param name="mnExtdSteps" value="9999"/>
<param name="mnRipupLevel" value="10"/>
<param name="mnRipupSteps" value="100"/>
<param name="mnRipupTotal" value="100"/>
</pass>
<pass name="Follow-me" refer="Default" active="yes">
</pass>
<pass name="Busses" refer="Default" active="yes">
<param name="cfNonPref" value="4"/>
<param name="cfBusImpact" value="4"/>
<param name="cfHugging" value="0"/>
<param name="mnVias" value="0"/>
</pass>
<pass name="Route" refer="Default" active="yes">
</pass>
<pass name="Optimize1" refer="Default" active="yes">
<param name="cfVia" value="99"/>
<param name="cfExtdStep" value="10"/>
<param name="cfHugging" value="1"/>
<param name="mnExtdSteps" value="1"/>
<param name="mnRipupLevel" value="0"/>
</pass>
<pass name="Optimize2" refer="Optimize1" active="yes">
<param name="cfNonPref" value="0"/>
<param name="cfChangeDir" value="6"/>
<param name="cfExtdStep" value="0"/>
<param name="cfBonusStep" value="2"/>
<param name="cfMalusStep" value="2"/>
<param name="cfPadImpact" value="2"/>
<param name="cfSmdImpact" value="2"/>
<param name="cfHugging" value="0"/>
</pass>
<pass name="Optimize3" refer="Optimize2" active="yes">
<param name="cfChangeDir" value="8"/>
<param name="cfPadImpact" value="0"/>
<param name="cfSmdImpact" value="0"/>
</pass>
<pass name="Optimize4" refer="Optimize3" active="yes">
<param name="cfChangeDir" value="25"/>
</pass>
</autorouter>
<elements>
<element name="C1" library="rcl" library_urn="urn:adsk.eagle:library:334" package="C0603" package3d_urn="urn:adsk.eagle:package:23616/2" value="22pf" x="11.938" y="21.59" smashed="yes" rot="R270">
<attribute name="NAME" x="11.938" y="19.812" size="0.8128" layer="25" align="top-center"/>
<attribute name="SPICEPREFIX" value="C" x="-40.132" y="-22.86" size="1.778" layer="27" rot="R270" display="off"/>
</element>
<element name="C2" library="rcl" library_urn="urn:adsk.eagle:library:334" package="C0603" package3d_urn="urn:adsk.eagle:package:23616/2" value="22pf" x="5.334" y="21.59" smashed="yes" rot="R90">
<attribute name="NAME" x="5.334" y="19.812" size="0.8128" layer="25" align="top-center"/>
<attribute name="SPICEPREFIX" value="C" x="57.404" y="71.12" size="1.778" layer="27" rot="R90" display="off"/>
</element>
<element name="IC1" library="untiec" package="QFP80P1200X1200X120-44" package3d_urn="urn:adsk.eagle:package:7630256/1" value="DSPIC33FJ128MC804" x="12.192" y="12.319" smashed="yes" rot="R90">
<attribute name="NAME" x="18.034" y="7.0409" size="0.8128" layer="25" align="top-center"/>
<attribute name="VALUE" x="20.193" y="5.5321" size="0.6096" layer="25" align="top-center"/>
</element>
<element name="R" library="rcl" library_urn="urn:adsk.eagle:library:334" package="R0805" package3d_urn="urn:adsk.eagle:package:23553/2" value="1k" x="23.241" y="18.542" smashed="yes" rot="R90">
<attribute name="NAME" x="23.241" y="20.955" size="0.8128" layer="25" rot="R180" align="top-center"/>
<attribute name="SPICEPREFIX" value="R" x="75.311" y="46.482" size="1.778" layer="27" rot="R90" display="off"/>
</element>
<element name="R1" library="rcl" library_urn="urn:adsk.eagle:library:334" package="R0805" package3d_urn="urn:adsk.eagle:package:23553/2" value="10k" x="22.098" y="14.986" smashed="yes">
<attribute name="NAME" x="19.939" y="16.256" size="0.8128" layer="25" rot="R180" align="top-center"/>
<attribute name="SPICEPREFIX" value="R" x="55.118" y="-37.084" size="1.778" layer="27" display="off"/>
</element>
<element name="C" library="untiec" package="CAPC2012X70" package3d_urn="urn:adsk.eagle:package:7642704/1" value="100nf" x="23.241" y="11.176" smashed="yes" rot="R270">
<attribute name="NAME" x="23.241" y="9.3856" size="0.8128" layer="25" align="top-center"/>
</element>
<element name="C3" library="untiec" package="CAPC2012X70" package3d_urn="urn:adsk.eagle:package:7642704/1" value="10uf" x="14.097" y="22.479" smashed="yes" rot="R90">
<attribute name="NAME" x="14.097" y="20.8156" size="0.8128" layer="25" align="top-center"/>
</element>
<element name="C4" library="untiec" package="CAPC2012X70" package3d_urn="urn:adsk.eagle:package:7642704/1" value="100nf" x="3.937" y="11.938" smashed="yes" rot="R90">
<attribute name="NAME" x="3.937" y="10.2746" size="0.8128" layer="25" align="top-center"/>
</element>
<element name="C5" library="untiec" package="CAPC2012X70" package3d_urn="urn:adsk.eagle:package:7642704/1" value="100nf" x="12.573" y="4.191" smashed="yes" rot="R180">
<attribute name="NAME" x="14.351" y="4.1786" size="0.8128" layer="25" align="center-left"/>
</element>
<element name="C6" library="untiec" package="CAPC2012X70" package3d_urn="urn:adsk.eagle:package:7642704/1" value="100nf" x="21.209" y="11.176" smashed="yes" rot="R270">
<attribute name="NAME" x="21.209" y="9.3856" size="0.8128" layer="25" align="top-center"/>
</element>
<element name="X1" library="untiec" package="OSCCC320X250X70" package3d_urn="urn:adsk.eagle:package:7635431/1" value="10MHz" x="8.636" y="21.59" smashed="yes" rot="R180">
<attribute name="NAME" x="8.636" y="19.7769" size="0.8128" layer="25" align="top-center"/>
<attribute name="VALUE" x="8.636" y="23.4599" size="0.8128" layer="25" rot="R180" align="top-center"/>
</element>
<element name="U$1" library="untiec" package="HDRV11W50P200_1X11_2200X200X600B" package3d_urn="urn:adsk.eagle:package:7630373/1" value="HEADER112MM-MALE" x="3.81" y="1.778" smashed="yes"/>
<element name="U$2" library="untiec" package="HDRV11W50P200_1X11_2200X200X600B" package3d_urn="urn:adsk.eagle:package:7630373/1" value="HEADER112MM-MALE" x="25.81" y="3.778" smashed="yes" rot="R90"/>
<element name="U$3" library="untiec" package="HDRV11W50P200_1X11_2200X200X600B" package3d_urn="urn:adsk.eagle:package:7630373/1" value="HEADER112MM-MALE" x="23.81" y="25.778" smashed="yes" rot="R180"/>
<element name="U$4" library="untiec" package="HDRV11W50P200_1X11_2200X200X600B" package3d_urn="urn:adsk.eagle:package:7630373/1" value="HEADER112MM-MALE" x="1.81" y="23.778" smashed="yes" rot="R270"/>
</elements>
<signals>
<signal name="+3V3">
<contactref element="IC1" pad="17"/>
<contactref element="IC1" pad="7"/>
<contactref element="IC1" pad="28"/>
<contactref element="IC1" pad="40"/>
<contactref element="R" pad="2"/>
<wire x1="12.192" y1="17.9903" x2="12.192" y2="19.05" width="0.254" layer="1"/>
<wire x1="12.192" y1="19.05" x2="14.097" y2="20.955" width="0.254" layer="1"/>
<via x="21.463" y="13.462" extent="1-16" drill="0.35"/>
<wire x1="23.241" y1="19.492" x2="24.069" y2="19.492" width="0.254" layer="1"/>
<wire x1="24.069" y1="19.492" x2="24.384" y2="19.177" width="0.254" layer="1"/>
<wire x1="24.798" y1="13.81" x2="24.384" y2="14.224" width="0.254" layer="1"/>
<wire x1="15.367" y1="21.844" x2="14.986" y2="21.463" width="0.254" layer="1"/>
<wire x1="16.3358875" y1="12.30055" x2="17.84485" y2="12.30055" width="0.254" layer="1"/>
<wire x1="17.84485" y1="12.30055" x2="17.8633" y2="12.319" width="0.254" layer="1"/>
<wire x1="6.5207" y1="11.519" x2="12.954" y2="11.519" width="0.254" layer="1"/>
<wire x1="12.954" y1="11.519" x2="15.5543375" y2="11.519" width="0.254" layer="1"/>
<wire x1="15.5543375" y1="11.519" x2="16.3358875" y2="12.30055" width="0.254" layer="1"/>
<wire x1="12.192" y1="17.9903" x2="12.192" y2="16.764" width="0.254" layer="1"/>
<wire x1="12.192" y1="16.764" x2="12.954" y2="16.002" width="0.254" layer="1"/>
<wire x1="12.954" y1="16.002" x2="12.954" y2="11.519" width="0.254" layer="1"/>
<wire x1="12.954" y1="11.519" x2="12.954" y2="6.6857" width="0.254" layer="1"/>
<wire x1="12.954" y1="6.6857" x2="12.992" y2="6.6477" width="0.254" layer="1"/>
<wire x1="24.384" y1="19.177" x2="24.384" y2="14.224" width="0.254" layer="1"/>
<contactref element="C3" pad="1"/>
<contactref element="C4" pad="1"/>
<contactref element="C5" pad="1"/>
<contactref element="C6" pad="1"/>
<wire x1="6.5207" y1="11.519" x2="4.4063" y2="11.519" width="0.254" layer="1"/>
<wire x1="4.4063" y1="11.519" x2="3.937" y2="11.0497" width="0.254" layer="1"/>
<wire x1="3.937" y1="11.0497" x2="2.4773" y2="11.0497" width="0.254" layer="1"/>
<wire x1="12.992" y1="6.6477" x2="12.992" y2="4.6603" width="0.254" layer="1"/>
<wire x1="12.992" y1="4.6603" x2="13.4613" y2="4.191" width="0.254" layer="1"/>
<wire x1="17.8633" y1="12.319" x2="20.9543" y2="12.319" width="0.254" layer="1"/>
<wire x1="20.9543" y1="12.319" x2="21.209" y2="12.0643" width="0.254" layer="1"/>
<wire x1="21.463" y1="13.462" x2="21.209" y2="13.208" width="0.254" layer="1"/>
<wire x1="21.209" y1="13.208" x2="21.209" y2="12.0643" width="0.254" layer="1"/>
<wire x1="14.097" y1="20.955" x2="14.097" y2="21.463" width="0.254" layer="1"/>
<wire x1="14.097" y1="21.463" x2="14.097" y2="21.5907" width="0.254" layer="1"/>
<wire x1="14.986" y1="21.463" x2="14.097" y2="21.463" width="0.254" layer="1"/>
<contactref element="U$1" pad="7"/>
<contactref element="U$2" pad="6"/>
<contactref element="U$3" pad="6"/>
<contactref element="U$4" pad="7"/>
<wire x1="2.4773" y1="11.0497" x2="1.81" y2="11.717" width="0.254" layer="1"/>
<wire x1="1.81" y1="11.717" x2="1.81" y2="11.778" width="0.254" layer="1"/>
<wire x1="13.4613" y1="4.191" x2="15.81" y2="1.8423" width="0.254" layer="1"/>
<wire x1="15.81" y1="1.8423" x2="15.81" y2="1.778" width="0.254" layer="1"/>
<wire x1="25.81" y1="13.778" x2="25.778" y2="13.81" width="0.254" layer="1"/>
<wire x1="25.778" y1="13.81" x2="24.798" y2="13.81" width="0.254" layer="1"/>
<wire x1="25.81" y1="13.778" x2="25.494" y2="13.462" width="0.254" layer="16"/>
<wire x1="25.494" y1="13.462" x2="21.463" y2="13.462" width="0.254" layer="16"/>
<wire x1="13.81" y1="25.778" x2="15.367" y2="24.221" width="0.254" layer="1"/>
<wire x1="15.367" y1="24.221" x2="15.367" y2="21.844" width="0.254" layer="1"/>
</signal>
<signal name="GND">
<contactref element="IC1" pad="16"/>
<contactref element="IC1" pad="6"/>
<contactref element="IC1" pad="29"/>
<contactref element="IC1" pad="39"/>
<contactref element="C1" pad="2"/>
<contactref element="C2" pad="2"/>
<wire x1="11.938" y1="20.74" x2="11.938" y2="19.685" width="0.254" layer="1"/>
<wire x1="11.938" y1="19.685" x2="11.392" y2="19.139" width="0.254" layer="1"/>
<wire x1="11.392" y1="19.139" x2="11.392" y2="17.9903" width="0.254" layer="1"/>
<wire x1="11.938" y1="20.74" x2="12.612" y2="20.74" width="0.254" layer="1"/>
<wire x1="12.612" y1="20.74" x2="12.827" y2="20.955" width="0.254" layer="1"/>
<wire x1="12.827" y1="20.955" x2="12.827" y2="22.479" width="0.254" layer="1"/>
<wire x1="12.827" y1="23.1398125" x2="12.827" y2="22.479" width="0.254" layer="1"/>
<wire x1="13.65" y1="23.302" x2="12.827" y2="22.479" width="0.254" layer="1"/>
<wire x1="17.8633" y1="11.519" x2="19.469" y2="11.519" width="0.254" layer="1"/>
<wire x1="24.384" y1="11.43" x2="24.384" y2="10.668" width="0.254" layer="1"/>
<wire x1="24.764" y1="11.81" x2="24.384" y2="11.43" width="0.254" layer="1"/>
<polygon width="0.254" layer="1">
<vertex x="2.794" y="24.765"/>
<vertex x="15.875" y="24.765"/>
<vertex x="15.875" y="18.034"/>
<vertex x="2.794" y="18.034"/>
</polygon>
<polygon width="0.254" layer="16">
<vertex x="0.762" y="26.797"/>
<vertex x="26.797" y="26.797"/>
<vertex x="26.797" y="0.762"/>
<vertex x="0.762" y="0.762"/>
</polygon>
<contactref element="C" pad="2"/>
<contactref element="C3" pad="2"/>
<contactref element="C4" pad="2"/>
<contactref element="C5" pad="2"/>
<contactref element="C6" pad="2"/>
<contactref element="X1" pad="2" route="any" routetag="G$1.2"/>
<contactref element="X1" pad="4" route="any" routetag="G$1.2"/>
<wire x1="12.827" y1="23.1398125" x2="12.2178125" y2="23.749" width="0.254" layer="1"/>
<wire x1="12.2178125" y1="23.749" x2="11.811" y2="23.749" width="0.254" layer="1"/>
<wire x1="11.811" y1="23.749" x2="7.493" y2="23.749" width="0.254" layer="1"/>
<wire x1="7.493" y1="23.749" x2="5.842" y2="23.749" width="0.254" layer="1"/>
<wire x1="5.842" y1="23.749" x2="5.334" y2="23.241" width="0.254" layer="1"/>
<wire x1="5.334" y1="23.241" x2="5.334" y2="22.44" width="0.254" layer="1"/>
<wire x1="7.461" y1="22.515" x2="7.461" y2="23.717" width="0.254" layer="1"/>
<wire x1="7.461" y1="23.717" x2="7.493" y2="23.749" width="0.254" layer="1"/>
<wire x1="6.5207" y1="12.319" x2="4.4443" y2="12.319" width="0.254" layer="1"/>
<wire x1="4.4443" y1="12.319" x2="3.937" y2="12.8263" width="0.254" layer="1"/>
<wire x1="11.6847" y1="4.191" x2="12.192" y2="4.6983" width="0.254" layer="1"/>
<wire x1="12.192" y1="4.6983" x2="12.192" y2="6.6477" width="0.254" layer="1"/>
<wire x1="11.6847" y1="4.191" x2="11.6847" y2="4.0267" width="0.254" layer="1"/>
<wire x1="11.6847" y1="4.0267" x2="11.623" y2="3.965" width="0.254" layer="1"/>
<wire x1="24.384" y1="10.668" x2="24.0037" y2="10.2877" width="0.254" layer="1"/>
<wire x1="24.0037" y1="10.2877" x2="23.241" y2="10.2877" width="0.254" layer="1"/>
<wire x1="19.469" y1="11.519" x2="20.7003" y2="10.2877" width="0.254" layer="1"/>
<wire x1="20.7003" y1="10.2877" x2="21.209" y2="10.2877" width="0.254" layer="1"/>
<wire x1="21.209" y1="10.2877" x2="23.241" y2="10.2877" width="0.254" layer="1"/>
<contactref element="U$1" pad="6"/>
<contactref element="U$2" pad="5"/>
<contactref element="U$3" pad="7"/>
<contactref element="U$4" pad="6"/>
<wire x1="3.937" y1="12.8263" x2="2.9853" y2="13.778" width="0.254" layer="1"/>
<wire x1="2.9853" y1="13.778" x2="1.81" y2="13.778" width="0.254" layer="1"/>
<wire x1="13.81" y1="1.778" x2="11.6847" y2="3.9033" width="0.254" layer="1"/>
<wire x1="11.6847" y1="3.9033" x2="11.6847" y2="4.0267" width="0.254" layer="1"/>
<wire x1="25.81" y1="11.778" x2="25.778" y2="11.81" width="0.254" layer="1"/>
<wire x1="25.778" y1="11.81" x2="24.764" y2="11.81" width="0.254" layer="1"/>
<wire x1="11.81" y1="25.778" x2="11.81" y2="23.75" width="0.254" layer="1"/>
<wire x1="11.81" y1="23.75" x2="11.811" y2="23.749" width="0.254" layer="1"/>
</signal>
<signal name="N$1">
<contactref element="IC1" pad="22"/>
<wire x1="18.2443" y1="18.1173" x2="18.2443" y2="16.7" width="0.254" layer="1"/>
<wire x1="17.8633" y1="16.319" x2="18.2443" y2="16.7" width="0.254" layer="1"/>
<contactref element="U$2" pad="11"/>
<wire x1="23.905" y1="23.778" x2="25.81" y2="23.778" width="0.254" layer="1"/>
<wire x1="23.905" y1="23.778" x2="18.2443" y2="18.1173" width="0.254" layer="1"/>
</signal>
<signal name="N$2">
<contactref element="IC1" pad="21"/>
<via x="19.0788375" y="17.8781625" extent="1-16" drill="0.35"/>
<wire x1="17.8633" y1="15.519" x2="18.00875" y2="15.66445" width="0.254" layer="1"/>
<wire x1="18.00875" y1="15.66445" x2="18.7557125" y2="15.66445" width="0.254" layer="1"/>
<wire x1="18.7557125" y1="15.66445" x2="19.0788375" y2="15.987575" width="0.254" layer="1"/>
<wire x1="19.0788375" y1="15.987575" x2="19.0788375" y2="17.8781625" width="0.254" layer="1"/>
<wire x1="22.851675" y1="21.778" x2="19.0788375" y2="18.0051625" width="0.254" layer="16"/>
<wire x1="19.0788375" y1="17.8781625" x2="19.0788375" y2="18.0051625" width="0.254" layer="16"/>
<contactref element="U$2" pad="10"/>
<wire x1="25.81" y1="21.778" x2="22.851675" y2="21.778" width="0.254" layer="16"/>
</signal>
<signal name="N$3">
<contactref element="IC1" pad="20"/>
<wire x1="17.8633" y1="14.719" x2="18.00875" y2="14.86445" width="0.254" layer="1"/>
<wire x1="18.00875" y1="14.86445" x2="18.8827125" y2="14.86445" width="0.254" layer="1"/>
<wire x1="21.59" y1="19.107675" x2="21.59" y2="20.32" width="0.254" layer="1"/>
<wire x1="18.8827125" y1="14.86445" x2="19.609" y2="15.5907375" width="0.254" layer="1"/>
<wire x1="19.609" y1="15.5907375" x2="19.609" y2="17.126675" width="0.254" layer="1"/>
<wire x1="19.609" y1="17.126675" x2="21.59" y2="19.107675" width="0.254" layer="1"/>
<wire x1="21.59" y1="20.32" x2="21.971" y2="20.701" width="0.254" layer="1"/>
<wire x1="24.89" y1="20.701" x2="21.971" y2="20.701" width="0.254" layer="1"/>
<contactref element="U$2" pad="9"/>
<wire x1="25.81" y1="19.778" x2="24.89" y2="20.698" width="0.254" layer="1"/>
<wire x1="24.89" y1="20.698" x2="24.89" y2="20.701" width="0.254" layer="1"/>
</signal>
<signal name="N$4">
<contactref element="IC1" pad="19"/>
<wire x1="17.8633" y1="13.919" x2="18.872" y2="13.919" width="0.254" layer="1"/>
<via x="21.336" y="17.78" extent="1-16" drill="0.35"/>
<wire x1="21.336" y1="17.710675" x2="21.336" y2="17.78" width="0.254" layer="1"/>
<wire x1="20.117" y1="15.164" x2="20.117" y2="16.491675" width="0.254" layer="1"/>
<wire x1="20.117" y1="16.491675" x2="21.336" y2="17.710675" width="0.254" layer="1"/>
<wire x1="18.872" y1="13.919" x2="20.117" y2="15.164" width="0.254" layer="1"/>
<contactref element="U$2" pad="8"/>
<wire x1="25.81" y1="17.778" x2="21.338" y2="17.778" width="0.254" layer="16"/>
<wire x1="21.338" y1="17.778" x2="21.336" y2="17.78" width="0.254" layer="16"/>
</signal>
<signal name="_MCLR">
<contactref element="IC1" pad="18"/>
<contactref element="R1" pad="1"/>
<wire x1="17.8633" y1="13.119" x2="19.027" y2="13.119" width="0.254" layer="1"/>
<wire x1="20.894" y1="14.986" x2="21.148" y2="14.986" width="0.254" layer="1"/>
<wire x1="20.894" y1="14.986" x2="19.027" y2="13.119" width="0.254" layer="1"/>
<wire x1="21.148" y1="14.986" x2="21.148" y2="16.449" width="0.254" layer="1"/>
<wire x1="21.148" y1="16.449" x2="21.336" y2="16.637" width="0.254" layer="1"/>
<via x="21.336" y="16.637" extent="1-16" drill="0.35"/>
<wire x1="23.495" y1="16.637" x2="21.336" y2="16.637" width="0.254" layer="16"/>
<contactref element="U$2" pad="7"/>
<wire x1="25.81" y1="15.778" x2="24.354" y2="15.778" width="0.254" layer="16"/>
<wire x1="24.354" y1="15.778" x2="23.495" y2="16.637" width="0.254" layer="16"/>
</signal>
<signal name="N$8">
<contactref element="IC1" pad="15"/>
<wire x1="17.8633" y1="10.719" x2="19.253" y2="10.719" width="0.254" layer="1"/>
<wire x1="19.824" y1="10.148" x2="19.824" y2="9.5451875" width="0.254" layer="1"/>
<wire x1="19.253" y1="10.719" x2="19.824" y2="10.148" width="0.254" layer="1"/>
<wire x1="19.824" y1="9.5451875" x2="20.2251875" y2="9.144" width="0.254" layer="1"/>
<wire x1="25.115" y1="9.144" x2="20.2251875" y2="9.144" width="0.254" layer="1"/>
<contactref element="U$2" pad="4"/>
<wire x1="25.81" y1="9.778" x2="25.749" y2="9.778" width="0.254" layer="1"/>
<wire x1="25.749" y1="9.778" x2="25.115" y2="9.144" width="0.254" layer="1"/>
</signal>
<signal name="N$9">
<contactref element="IC1" pad="14"/>
<wire x1="17.8633" y1="9.919" x2="19.037" y2="9.919" width="0.254" layer="1"/>
<wire x1="19.316" y1="9.175575" x2="19.316" y2="9.64" width="0.254" layer="1"/>
<wire x1="19.037" y1="9.919" x2="19.316" y2="9.64" width="0.254" layer="1"/>
<contactref element="U$2" pad="3"/>
<wire x1="25.81" y1="7.778" x2="20.713575" y2="7.778" width="0.254" layer="1"/>
<wire x1="20.713575" y1="7.778" x2="19.316" y2="9.175575" width="0.254" layer="1"/>
</signal>
<signal name="N$10">
<contactref element="IC1" pad="13"/>
<wire x1="17.8633" y1="9.119" x2="18.694" y2="9.119" width="0.254" layer="1"/>
<wire x1="18.808" y1="8.96515" x2="18.808" y2="9.005" width="0.254" layer="1"/>
<wire x1="18.694" y1="9.119" x2="18.808" y2="9.005" width="0.254" layer="1"/>
<contactref element="U$2" pad="2"/>
<wire x1="25.81" y1="5.778" x2="21.99515" y2="5.778" width="0.254" layer="1"/>
<wire x1="21.99515" y1="5.778" x2="18.808" y2="8.96515" width="0.254" layer="1"/>
</signal>
<signal name="N$11">
<contactref element="IC1" pad="12"/>
<wire x1="17.8633" y1="8.319" x2="17.9903" y2="8.319" width="0.254" layer="1"/>
<contactref element="U$2" pad="1"/>
<wire x1="22.5313" y1="3.778" x2="25.81" y2="3.778" width="0.254" layer="1"/>
<wire x1="17.9903" y1="8.319" x2="22.5313" y2="3.778" width="0.254" layer="1"/>
</signal>
<signal name="N$7">
<contactref element="IC1" pad="11"/>
<wire x1="18.0137" y1="4.064" x2="16.192" y2="5.8857" width="0.254" layer="1"/>
<wire x1="16.192" y1="6.6477" x2="16.192" y2="5.8857" width="0.254" layer="1"/>
<wire x1="18.0137" y1="4.064" x2="21.524" y2="4.064" width="0.254" layer="1"/>
<contactref element="U$1" pad="11"/>
<wire x1="21.524" y1="4.064" x2="23.81" y2="1.778" width="0.254" layer="1"/>
</signal>
<signal name="N$12">
<contactref element="IC1" pad="10"/>
<wire x1="15.392" y1="6.6477" x2="15.53745" y2="6.50225" width="0.254" layer="1"/>
<wire x1="15.53745" y1="6.50225" x2="15.53745" y2="5.7552875" width="0.254" layer="1"/>
<wire x1="15.53745" y1="5.7552875" x2="17.7367375" y2="3.556" width="0.254" layer="1"/>
<wire x1="17.7367375" y1="3.556" x2="21.209" y2="3.556" width="0.254" layer="1"/>
<wire x1="21.209" y1="3.556" x2="21.81" y2="2.955" width="0.254" layer="1"/>
<contactref element="U$1" pad="10"/>
<wire x1="21.81" y1="2.955" x2="21.81" y2="1.778" width="0.254" layer="1"/>
</signal>
<signal name="N$13">
<contactref element="IC1" pad="9"/>
<wire x1="14.592" y1="6.6477" x2="14.592" y2="5.9007375" width="0.254" layer="1"/>
<wire x1="14.592" y1="5.9007375" x2="17.4447375" y2="3.048" width="0.254" layer="1"/>
<wire x1="17.4447375" y1="3.048" x2="19.431" y2="3.048" width="0.254" layer="1"/>
<wire x1="19.431" y1="3.048" x2="19.81" y2="2.669" width="0.254" layer="1"/>
<contactref element="U$1" pad="9"/>
<wire x1="19.81" y1="2.669" x2="19.81" y2="1.778" width="0.254" layer="1"/>
</signal>
<signal name="N$14">
<contactref element="IC1" pad="8"/>
<wire x1="13.792" y1="6.6477" x2="13.843" y2="6.5967" width="0.254" layer="1"/>
<wire x1="13.843" y1="6.5967" x2="13.843" y2="5.842" width="0.254" layer="1"/>
<contactref element="U$1" pad="8"/>
<wire x1="13.843" y1="5.842" x2="17.81" y2="1.875" width="0.254" layer="1"/>
<wire x1="17.81" y1="1.875" x2="17.81" y2="1.778" width="0.254" layer="1"/>
</signal>
<signal name="N$17">
<contactref element="IC1" pad="5"/>
<wire x1="11.392" y1="6.6477" x2="11.392" y2="5.665" width="0.254" layer="1"/>
<wire x1="11.392" y1="5.665" x2="10.592" y2="4.865" width="0.254" layer="1"/>
<wire x1="10.592" y1="2.996" x2="10.592" y2="4.865" width="0.254" layer="1"/>
<contactref element="U$1" pad="5"/>
<wire x1="11.81" y1="1.778" x2="10.592" y2="2.996" width="0.254" layer="1"/>
</signal>
<signal name="N$18">
<contactref element="IC1" pad="4"/>
<wire x1="10.592" y1="6.6477" x2="10.592" y2="5.8172375" width="0.254" layer="1"/>
<wire x1="10.592" y1="5.8172375" x2="9.83" y2="5.0552375" width="0.254" layer="1"/>
<contactref element="U$1" pad="4"/>
<wire x1="9.83" y1="5.0552375" x2="9.83" y2="1.798" width="0.254" layer="1"/>
<wire x1="9.83" y1="1.798" x2="9.81" y2="1.778" width="0.254" layer="1"/>
</signal>
<signal name="N$19">
<contactref element="IC1" pad="3"/>
<wire x1="9.792" y1="6.6477" x2="9.792" y2="5.7356625" width="0.254" layer="1"/>
<wire x1="7.81" y1="3.7536625" x2="9.792" y2="5.7356625" width="0.254" layer="1"/>
<contactref element="U$1" pad="3"/>
<wire x1="7.81" y1="1.778" x2="7.81" y2="3.7536625" width="0.254" layer="1"/>
</signal>
<signal name="N$20">
<contactref element="IC1" pad="2"/>
<wire x1="8.992" y1="6.6477" x2="8.992" y2="5.817" width="0.254" layer="1"/>
<wire x1="5.81" y1="2.635" x2="8.992" y2="5.817" width="0.254" layer="1"/>
<contactref element="U$1" pad="2"/>
<wire x1="5.81" y1="1.778" x2="5.81" y2="2.635" width="0.254" layer="1"/>
</signal>
<signal name="N$21">
<contactref element="IC1" pad="1"/>
<wire x1="3.81" y1="2.2657" x2="8.192" y2="6.6477" width="0.254" layer="1"/>
<contactref element="U$1" pad="1"/>
<wire x1="3.81" y1="1.778" x2="3.81" y2="2.2657" width="0.254" layer="1"/>
</signal>
<signal name="N$6">
<contactref element="IC1" pad="23"/>
<wire x1="16.192" y1="17.9903" x2="16.192" y2="18.605" width="0.254" layer="1"/>
<wire x1="23.495" y1="24.511" x2="22.098" y2="24.511" width="0.254" layer="1"/>
<wire x1="16.192" y1="18.605" x2="22.098" y2="24.511" width="0.254" layer="1"/>
<contactref element="U$3" pad="1"/>
<wire x1="23.81" y1="25.778" x2="23.81" y2="24.826" width="0.254" layer="1"/>
<wire x1="23.81" y1="24.826" x2="23.495" y2="24.511" width="0.254" layer="1"/>
</signal>
<signal name="N$15">
<contactref element="IC1" pad="24"/>
<wire x1="15.392" y1="18.898" x2="15.392" y2="17.9903" width="0.254" layer="1"/>
<contactref element="U$3" pad="2"/>
<wire x1="21.81" y1="25.778" x2="21.81" y2="25.316" width="0.254" layer="1"/>
<wire x1="21.81" y1="25.316" x2="15.392" y2="18.898" width="0.254" layer="1"/>
</signal>
<signal name="N$16">
<contactref element="IC1" pad="25"/>
<wire x1="14.592" y1="18.91" x2="14.592" y2="17.9903" width="0.254" layer="1"/>
<contactref element="U$3" pad="3"/>
<wire x1="19.81" y1="25.778" x2="19.81" y2="24.128" width="0.254" layer="1"/>
<wire x1="19.81" y1="24.128" x2="14.592" y2="18.91" width="0.254" layer="1"/>
</signal>
<signal name="N$22">
<contactref element="IC1" pad="26"/>
<wire x1="13.792" y1="17.9903" x2="13.792" y2="16.942" width="0.254" layer="1"/>
<wire x1="13.792" y1="16.942" x2="13.97" y2="16.764" width="0.254" layer="1"/>
<wire x1="13.97" y1="16.764" x2="16.637" y2="16.764" width="0.254" layer="1"/>
<wire x1="16.637" y1="16.764" x2="17.399" y2="17.526" width="0.254" layer="1"/>
<wire x1="17.399" y1="17.526" x2="17.399" y2="18.415" width="0.254" layer="1"/>
<via x="17.399" y="18.415" extent="1-16" drill="0.35"/>
<contactref element="U$3" pad="4"/>
<wire x1="17.399" y1="18.415" x2="17.399" y2="25.367" width="0.254" layer="16"/>
<wire x1="17.399" y1="25.367" x2="17.81" y2="25.778" width="0.254" layer="16"/>
</signal>
<signal name="N$23">
<contactref element="IC1" pad="27"/>
<wire x1="12.992" y1="17.9903" x2="12.992" y2="19.088" width="0.254" layer="1"/>
<wire x1="12.992" y1="19.088" x2="14.224" y2="20.32" width="0.254" layer="1"/>
<wire x1="14.224" y1="20.32" x2="14.859" y2="20.32" width="0.254" layer="1"/>
<wire x1="16.064" y1="21.525" x2="14.859" y2="20.32" width="0.254" layer="1"/>
<contactref element="U$3" pad="5"/>
<wire x1="15.81" y1="25.778" x2="16.064" y2="25.524" width="0.254" layer="1"/>
<wire x1="16.064" y1="25.524" x2="16.064" y2="21.525" width="0.254" layer="1"/>
</signal>
<signal name="OSC1">
<contactref element="IC1" pad="30"/>
<contactref element="C1" pad="1"/>
<wire x1="10.922" y1="22.39" x2="11.888" y2="22.39" width="0.254" layer="1"/>
<wire x1="11.888" y1="22.39" x2="11.938" y2="22.44" width="0.254" layer="1"/>
<wire x1="10.592" y1="17.9903" x2="10.592" y2="19.355" width="0.254" layer="1"/>
<wire x1="10.592" y1="19.355" x2="10.922" y2="19.685" width="0.254" layer="1"/>
<wire x1="10.922" y1="19.685" x2="10.922" y2="22.39" width="0.254" layer="1"/>
<contactref element="X1" pad="1"/>
<wire x1="9.811" y1="22.515" x2="10.797" y2="22.515" width="0.254" layer="1"/>
<wire x1="10.797" y1="22.515" x2="10.922" y2="22.39" width="0.254" layer="1"/>
</signal>
<signal name="OSC2">
<contactref element="IC1" pad="31"/>
<contactref element="C2" pad="1"/>
<wire x1="5.384" y1="20.79" x2="5.334" y2="20.74" width="0.254" layer="1"/>
<contactref element="X1" pad="3"/>
<wire x1="7.461" y1="20.665" x2="5.509" y2="20.665" width="0.254" layer="1"/>
<wire x1="5.509" y1="20.665" x2="5.384" y2="20.79" width="0.254" layer="1"/>
<wire x1="7.461" y1="20.665" x2="8.4729" y2="19.6531" width="0.254" layer="1"/>
<wire x1="8.4729" y1="19.6531" x2="9.398" y2="19.6531" width="0.254" layer="1"/>
<wire x1="9.398" y1="19.6531" x2="9.792" y2="19.2591" width="0.254" layer="1"/>
<wire x1="9.792" y1="19.2591" x2="9.792" y2="17.9903" width="0.254" layer="1"/>
</signal>
<signal name="N$28">
<contactref element="IC1" pad="32"/>
<wire x1="8.992" y1="17.9903" x2="8.992" y2="16.993" width="0.254" layer="1"/>
<wire x1="8.992" y1="16.993" x2="8.763" y2="16.764" width="0.254" layer="1"/>
<wire x1="8.763" y1="16.764" x2="7.747" y2="16.764" width="0.254" layer="1"/>
<wire x1="7.747" y1="16.764" x2="7.239" y2="17.272" width="0.254" layer="1"/>
<wire x1="7.239" y1="17.272" x2="5.588" y2="17.272" width="0.254" layer="1"/>
<wire x1="5.588" y1="17.272" x2="5.207" y2="17.653" width="0.254" layer="1"/>
<wire x1="5.207" y1="17.653" x2="5.207" y2="18.415" width="0.254" layer="1"/>
<via x="5.207" y="18.415" extent="1-16" drill="0.35"/>
<wire x1="5.207" y1="18.415" x2="3.937" y2="19.685" width="0.254" layer="16"/>
<wire x1="3.937" y1="23.368" x2="3.937" y2="19.685" width="0.254" layer="16"/>
<contactref element="U$3" pad="10"/>
<wire x1="5.81" y1="25.778" x2="5.81" y2="25.241" width="0.254" layer="16"/>
<wire x1="5.81" y1="25.241" x2="3.937" y2="23.368" width="0.254" layer="16"/>
</signal>
<signal name="N$29">
<contactref element="IC1" pad="33"/>
<wire x1="8.192" y1="17.9903" x2="7.7673" y2="18.415" width="0.254" layer="1"/>
<wire x1="7.7673" y1="18.415" x2="7.112" y2="18.415" width="0.254" layer="1"/>
<via x="7.112" y="18.415" extent="1-16" drill="0.35"/>
<wire x1="7.112" y1="18.415" x2="6.223" y2="17.526" width="0.254" layer="16"/>
<wire x1="6.223" y1="17.526" x2="4.826" y2="17.526" width="0.254" layer="16"/>
<wire x1="4.826" y1="17.526" x2="3.302" y2="19.05" width="0.254" layer="16"/>
<contactref element="U$3" pad="11"/>
<wire x1="3.302" y1="19.05" x2="3.302" y2="25.27" width="0.254" layer="16"/>
<wire x1="3.302" y1="25.27" x2="3.81" y2="25.778" width="0.254" layer="16"/>
</signal>
<signal name="N$24">
<contactref element="IC1" pad="34"/>
<wire x1="6.5207" y1="16.319" x2="5.779" y2="16.319" width="0.254" layer="1"/>
<wire x1="5.779" y1="16.319" x2="4.318" y2="17.78" width="0.254" layer="1"/>
<wire x1="4.318" y1="17.78" x2="4.318" y2="19.304" width="0.254" layer="1"/>
<wire x1="4.318" y1="19.304" x2="3.683" y2="19.939" width="0.254" layer="1"/>
<wire x1="3.683" y1="19.939" x2="3.683" y2="23.368" width="0.254" layer="1"/>
<contactref element="U$4" pad="1"/>
<wire x1="3.683" y1="23.368" x2="3.273" y2="23.778" width="0.254" layer="1"/>
<wire x1="3.273" y1="23.778" x2="1.81" y2="23.778" width="0.254" layer="1"/>
</signal>
<signal name="N$25">
<contactref element="IC1" pad="35"/>
<wire x1="6.5207" y1="15.519" x2="6.50225" y2="15.53745" width="0.254" layer="1"/>
<wire x1="6.50225" y1="15.53745" x2="5.7552875" y2="15.53745" width="0.254" layer="1"/>
<wire x1="5.7552875" y1="15.53745" x2="3.81" y2="17.4827375" width="0.254" layer="1"/>
<wire x1="3.81" y1="17.4827375" x2="3.81" y2="19.05" width="0.254" layer="1"/>
<wire x1="3.81" y1="19.05" x2="3.048" y2="19.812" width="0.254" layer="1"/>
<wire x1="3.048" y1="20.701" x2="3.048" y2="19.812" width="0.254" layer="1"/>
<contactref element="U$4" pad="2"/>
<wire x1="1.81" y1="21.778" x2="1.971" y2="21.778" width="0.254" layer="1"/>
<wire x1="1.971" y1="21.778" x2="3.048" y2="20.701" width="0.254" layer="1"/>
</signal>
<signal name="N$30">
<contactref element="IC1" pad="36"/>
<wire x1="6.5207" y1="14.719" x2="6.50225" y2="14.73745" width="0.254" layer="1"/>
<wire x1="6.50225" y1="14.73745" x2="5.7552875" y2="14.73745" width="0.254" layer="1"/>
<wire x1="5.7552875" y1="14.73745" x2="3.175" y2="17.3177375" width="0.254" layer="1"/>
<wire x1="3.175" y1="18.542" x2="3.175" y2="17.3177375" width="0.254" layer="1"/>
<contactref element="U$4" pad="3"/>
<wire x1="1.81" y1="19.778" x2="1.939" y2="19.778" width="0.254" layer="1"/>
<wire x1="1.939" y1="19.778" x2="3.175" y2="18.542" width="0.254" layer="1"/>
</signal>
<signal name="N$31">
<contactref element="IC1" pad="37"/>
<wire x1="6.5207" y1="13.919" x2="6.50225" y2="13.93745" width="0.254" layer="1"/>
<wire x1="6.50225" y1="13.93745" x2="5.6717875" y2="13.93745" width="0.254" layer="1"/>
<contactref element="U$4" pad="4"/>
<wire x1="1.81" y1="17.778" x2="1.8312375" y2="17.778" width="0.254" layer="1"/>
<wire x1="1.8312375" y1="17.778" x2="5.6717875" y2="13.93745" width="0.254" layer="1"/>
</signal>
<signal name="N$32">
<contactref element="IC1" pad="38"/>
<wire x1="6.5207" y1="13.119" x2="5.423" y2="13.119" width="0.254" layer="1"/>
<wire x1="5.195" y1="13.6958125" x2="5.195" y2="13.347" width="0.254" layer="1"/>
<wire x1="5.423" y1="13.119" x2="5.195" y2="13.347" width="0.254" layer="1"/>
<contactref element="U$4" pad="5"/>
<wire x1="1.81" y1="15.778" x2="3.1128125" y2="15.778" width="0.254" layer="1"/>
<wire x1="3.1128125" y1="15.778" x2="5.195" y2="13.6958125" width="0.254" layer="1"/>
</signal>
<signal name="N$35">
<contactref element="IC1" pad="41"/>
<wire x1="6.5207" y1="10.719" x2="5.512" y2="10.719" width="0.254" layer="1"/>
<wire x1="4.571" y1="9.778" x2="5.512" y2="10.719" width="0.254" layer="1"/>
<contactref element="U$4" pad="8"/>
<wire x1="1.81" y1="9.778" x2="4.571" y2="9.778" width="0.254" layer="1"/>
</signal>
<signal name="N$36">
<contactref element="IC1" pad="42"/>
<wire x1="6.5207" y1="9.919" x2="6.5077" y2="9.906" width="0.254" layer="1"/>
<wire x1="6.5077" y1="9.906" x2="5.6392375" y2="9.906" width="0.254" layer="1"/>
<wire x1="5.6392375" y1="9.906" x2="3.5112375" y2="7.778" width="0.254" layer="1"/>
<contactref element="U$4" pad="9"/>
<wire x1="1.81" y1="7.778" x2="3.5112375" y2="7.778" width="0.254" layer="1"/>
</signal>
<signal name="N$37">
<contactref element="IC1" pad="43"/>
<wire x1="6.5207" y1="9.119" x2="5.69" y2="9.119" width="0.254" layer="1"/>
<wire x1="2.32" y1="5.749" x2="5.69" y2="9.119" width="0.254" layer="1"/>
<contactref element="U$4" pad="10"/>
<wire x1="1.81" y1="5.778" x2="2.291" y2="5.778" width="0.254" layer="1"/>
<wire x1="2.291" y1="5.778" x2="2.32" y2="5.749" width="0.254" layer="1"/>
</signal>
<signal name="N$38">
<contactref element="IC1" pad="44"/>
<wire x1="6.5207" y1="8.319" x2="5.779" y2="8.319" width="0.254" layer="1"/>
<wire x1="5.779" y1="8.319" x2="3.429" y2="5.969" width="0.254" layer="1"/>
<wire x1="3.429" y1="5.969" x2="3.429" y2="4.318" width="0.254" layer="1"/>
<wire x1="2.889" y1="3.778" x2="3.429" y2="4.318" width="0.254" layer="1"/>
<contactref element="U$4" pad="11"/>
<wire x1="1.81" y1="3.778" x2="2.889" y2="3.778" width="0.254" layer="1"/>
</signal>
<signal name="N$26">
<contactref element="R" pad="1"/>
<contactref element="R1" pad="2"/>
<wire x1="23.241" y1="17.592" x2="23.241" y2="15.179" width="0.254" layer="1"/>
<wire x1="23.048" y1="14.986" x2="23.241" y2="15.179" width="0.254" layer="1"/>
<contactref element="C" pad="1"/>
<wire x1="23.048" y1="14.986" x2="23.241" y2="14.793" width="0.254" layer="1"/>
<wire x1="23.241" y1="14.793" x2="23.241" y2="12.0643" width="0.254" layer="1"/>
</signal>
</signals>
<mfgpreviewcolors>
<mfgpreviewcolor name="soldermaskcolor" color="0xC8008000"/>
<mfgpreviewcolor name="silkscreencolor" color="0xFFFEFEFE"/>
<mfgpreviewcolor name="backgroundcolor" color="0xFF282828"/>
<mfgpreviewcolor name="coppercolor" color="0xFFFFBF00"/>
<mfgpreviewcolor name="substratecolor" color="0xFF786E46"/>
</mfgpreviewcolors>
</board>
</drawing>
<compatibility>
<note version="6.3" minversion="6.2.2" severity="warning">
Since Version 6.2.2 text objects can contain more than one line,
which will not be processed correctly with this version.
</note>
<note version="8.2" severity="warning">
Since Version 8.2, EAGLE supports online libraries. The ids
of those online libraries will not be understood (or retained)
with this version.
</note>
<note version="8.3" severity="warning">
Since Version 8.3, EAGLE supports Fusion synchronisation.
This feature will not be available in this version and saving
the document will break the link to the Fusion PCB feature.
</note>
<note version="8.3" severity="warning">
Since Version 8.3, EAGLE supports URNs for individual library
assets (packages, symbols, and devices). The URNs of those assets
will not be understood (or retained) with this version.
</note>
<note version="8.3" severity="warning">
Since Version 8.3, EAGLE supports the association of 3D packages
with devices in libraries, schematics, and board files. Those 3D
packages will not be understood (or retained) with this version.
</note>
</compatibility>
</eagle>
